# 1 "fraction_to_recurring_decimal.c"
# 1 "<built-in>"
# 1 "<command-line>"
# 31 "<command-line>"
# 1 "/usr/include/stdc-predef.h" 1 3 4
# 32 "<command-line>" 2
# 1 "fraction_to_recurring_decimal.c"
# 43 "fraction_to_recurring_decimal.c"
# 1 "/usr/include/stdio.h" 1 3 4
# 27 "/usr/include/stdio.h" 3 4
# 1 "/usr/include/x86_64-linux-gnu/bits/libc-header-start.h" 1 3 4
# 33 "/usr/include/x86_64-linux-gnu/bits/libc-header-start.h" 3 4
# 1 "/usr/include/features.h" 1 3 4
# 461 "/usr/include/features.h" 3 4
# 1 "/usr/include/x86_64-linux-gnu/sys/cdefs.h" 1 3 4
# 452 "/usr/include/x86_64-linux-gnu/sys/cdefs.h" 3 4
# 1 "/usr/include/x86_64-linux-gnu/bits/wordsize.h" 1 3 4
# 453 "/usr/include/x86_64-linux-gnu/sys/cdefs.h" 2 3 4
# 1 "/usr/include/x86_64-linux-gnu/bits/long-double.h" 1 3 4
# 454 "/usr/include/x86_64-linux-gnu/sys/cdefs.h" 2 3 4
# 462 "/usr/include/features.h" 2 3 4
# 485 "/usr/include/features.h" 3 4
# 1 "/usr/include/x86_64-linux-gnu/gnu/stubs.h" 1 3 4
# 10 "/usr/include/x86_64-linux-gnu/gnu/stubs.h" 3 4
# 1 "/usr/include/x86_64-linux-gnu/gnu/stubs-64.h" 1 3 4
# 11 "/usr/include/x86_64-linux-gnu/gnu/stubs.h" 2 3 4
# 486 "/usr/include/features.h" 2 3 4
# 34 "/usr/include/x86_64-linux-gnu/bits/libc-header-start.h" 2 3 4
# 28 "/usr/include/stdio.h" 2 3 4





# 1 "/usr/lib/gcc/x86_64-linux-gnu/9/include/stddef.h" 1 3 4
# 209 "/usr/lib/gcc/x86_64-linux-gnu/9/include/stddef.h" 3 4

# 209 "/usr/lib/gcc/x86_64-linux-gnu/9/include/stddef.h" 3 4
typedef long unsigned int size_t;
# 34 "/usr/include/stdio.h" 2 3 4


# 1 "/usr/lib/gcc/x86_64-linux-gnu/9/include/stdarg.h" 1 3 4
# 40 "/usr/lib/gcc/x86_64-linux-gnu/9/include/stdarg.h" 3 4
typedef __builtin_va_list __gnuc_va_list;
# 37 "/usr/include/stdio.h" 2 3 4

# 1 "/usr/include/x86_64-linux-gnu/bits/types.h" 1 3 4
# 27 "/usr/include/x86_64-linux-gnu/bits/types.h" 3 4
# 1 "/usr/include/x86_64-linux-gnu/bits/wordsize.h" 1 3 4
# 28 "/usr/include/x86_64-linux-gnu/bits/types.h" 2 3 4
# 1 "/usr/include/x86_64-linux-gnu/bits/timesize.h" 1 3 4
# 29 "/usr/include/x86_64-linux-gnu/bits/types.h" 2 3 4


typedef unsigned char __u_char;
typedef unsigned short int __u_short;
typedef unsigned int __u_int;
typedef unsigned long int __u_long;


typedef signed char __int8_t;
typedef unsigned char __uint8_t;
typedef signed short int __int16_t;
typedef unsigned short int __uint16_t;
typedef signed int __int32_t;
typedef unsigned int __uint32_t;

typedef signed long int __int64_t;
typedef unsigned long int __uint64_t;






typedef __int8_t __int_least8_t;
typedef __uint8_t __uint_least8_t;
typedef __int16_t __int_least16_t;
typedef __uint16_t __uint_least16_t;
typedef __int32_t __int_least32_t;
typedef __uint32_t __uint_least32_t;
typedef __int64_t __int_least64_t;
typedef __uint64_t __uint_least64_t;



typedef long int __quad_t;
typedef unsigned long int __u_quad_t;







typedef long int __intmax_t;
typedef unsigned long int __uintmax_t;
# 141 "/usr/include/x86_64-linux-gnu/bits/types.h" 3 4
# 1 "/usr/include/x86_64-linux-gnu/bits/typesizes.h" 1 3 4
# 142 "/usr/include/x86_64-linux-gnu/bits/types.h" 2 3 4
# 1 "/usr/include/x86_64-linux-gnu/bits/time64.h" 1 3 4
# 143 "/usr/include/x86_64-linux-gnu/bits/types.h" 2 3 4


typedef unsigned long int __dev_t;
typedef unsigned int __uid_t;
typedef unsigned int __gid_t;
typedef unsigned long int __ino_t;
typedef unsigned long int __ino64_t;
typedef unsigned int __mode_t;
typedef unsigned long int __nlink_t;
typedef long int __off_t;
typedef long int __off64_t;
typedef int __pid_t;
typedef struct { int __val[2]; } __fsid_t;
typedef long int __clock_t;
typedef unsigned long int __rlim_t;
typedef unsigned long int __rlim64_t;
typedef unsigned int __id_t;
typedef long int __time_t;
typedef unsigned int __useconds_t;
typedef long int __suseconds_t;

typedef int __daddr_t;
typedef int __key_t;


typedef int __clockid_t;


typedef void * __timer_t;


typedef long int __blksize_t;




typedef long int __blkcnt_t;
typedef long int __blkcnt64_t;


typedef unsigned long int __fsblkcnt_t;
typedef unsigned long int __fsblkcnt64_t;


typedef unsigned long int __fsfilcnt_t;
typedef unsigned long int __fsfilcnt64_t;


typedef long int __fsword_t;

typedef long int __ssize_t;


typedef long int __syscall_slong_t;

typedef unsigned long int __syscall_ulong_t;



typedef __off64_t __loff_t;
typedef char *__caddr_t;


typedef long int __intptr_t;


typedef unsigned int __socklen_t;




typedef int __sig_atomic_t;
# 39 "/usr/include/stdio.h" 2 3 4
# 1 "/usr/include/x86_64-linux-gnu/bits/types/__fpos_t.h" 1 3 4




# 1 "/usr/include/x86_64-linux-gnu/bits/types/__mbstate_t.h" 1 3 4
# 13 "/usr/include/x86_64-linux-gnu/bits/types/__mbstate_t.h" 3 4
typedef struct
{
  int __count;
  union
  {
    unsigned int __wch;
    char __wchb[4];
  } __value;
} __mbstate_t;
# 6 "/usr/include/x86_64-linux-gnu/bits/types/__fpos_t.h" 2 3 4




typedef struct _G_fpos_t
{
  __off_t __pos;
  __mbstate_t __state;
} __fpos_t;
# 40 "/usr/include/stdio.h" 2 3 4
# 1 "/usr/include/x86_64-linux-gnu/bits/types/__fpos64_t.h" 1 3 4
# 10 "/usr/include/x86_64-linux-gnu/bits/types/__fpos64_t.h" 3 4
typedef struct _G_fpos64_t
{
  __off64_t __pos;
  __mbstate_t __state;
} __fpos64_t;
# 41 "/usr/include/stdio.h" 2 3 4
# 1 "/usr/include/x86_64-linux-gnu/bits/types/__FILE.h" 1 3 4



struct _IO_FILE;
typedef struct _IO_FILE __FILE;
# 42 "/usr/include/stdio.h" 2 3 4
# 1 "/usr/include/x86_64-linux-gnu/bits/types/FILE.h" 1 3 4



struct _IO_FILE;


typedef struct _IO_FILE FILE;
# 43 "/usr/include/stdio.h" 2 3 4
# 1 "/usr/include/x86_64-linux-gnu/bits/types/struct_FILE.h" 1 3 4
# 35 "/usr/include/x86_64-linux-gnu/bits/types/struct_FILE.h" 3 4
struct _IO_FILE;
struct _IO_marker;
struct _IO_codecvt;
struct _IO_wide_data;




typedef void _IO_lock_t;





struct _IO_FILE
{
  int _flags;


  char *_IO_read_ptr;
  char *_IO_read_end;
  char *_IO_read_base;
  char *_IO_write_base;
  char *_IO_write_ptr;
  char *_IO_write_end;
  char *_IO_buf_base;
  char *_IO_buf_end;


  char *_IO_save_base;
  char *_IO_backup_base;
  char *_IO_save_end;

  struct _IO_marker *_markers;

  struct _IO_FILE *_chain;

  int _fileno;
  int _flags2;
  __off_t _old_offset;


  unsigned short _cur_column;
  signed char _vtable_offset;
  char _shortbuf[1];

  _IO_lock_t *_lock;







  __off64_t _offset;

  struct _IO_codecvt *_codecvt;
  struct _IO_wide_data *_wide_data;
  struct _IO_FILE *_freeres_list;
  void *_freeres_buf;
  size_t __pad5;
  int _mode;

  char _unused2[15 * sizeof (int) - 4 * sizeof (void *) - sizeof (size_t)];
};
# 44 "/usr/include/stdio.h" 2 3 4
# 52 "/usr/include/stdio.h" 3 4
typedef __gnuc_va_list va_list;
# 63 "/usr/include/stdio.h" 3 4
typedef __off_t off_t;
# 77 "/usr/include/stdio.h" 3 4
typedef __ssize_t ssize_t;






typedef __fpos_t fpos_t;
# 133 "/usr/include/stdio.h" 3 4
# 1 "/usr/include/x86_64-linux-gnu/bits/stdio_lim.h" 1 3 4
# 134 "/usr/include/stdio.h" 2 3 4



extern FILE *stdin;
extern FILE *stdout;
extern FILE *stderr;






extern int remove (const char *__filename) __attribute__ ((__nothrow__ , __leaf__));

extern int rename (const char *__old, const char *__new) __attribute__ ((__nothrow__ , __leaf__));



extern int renameat (int __oldfd, const char *__old, int __newfd,
       const char *__new) __attribute__ ((__nothrow__ , __leaf__));
# 173 "/usr/include/stdio.h" 3 4
extern FILE *tmpfile (void) ;
# 187 "/usr/include/stdio.h" 3 4
extern char *tmpnam (char *__s) __attribute__ ((__nothrow__ , __leaf__)) ;




extern char *tmpnam_r (char *__s) __attribute__ ((__nothrow__ , __leaf__)) ;
# 204 "/usr/include/stdio.h" 3 4
extern char *tempnam (const char *__dir, const char *__pfx)
     __attribute__ ((__nothrow__ , __leaf__)) __attribute__ ((__malloc__)) ;







extern int fclose (FILE *__stream);




extern int fflush (FILE *__stream);
# 227 "/usr/include/stdio.h" 3 4
extern int fflush_unlocked (FILE *__stream);
# 246 "/usr/include/stdio.h" 3 4
extern FILE *fopen (const char *__restrict __filename,
      const char *__restrict __modes) ;




extern FILE *freopen (const char *__restrict __filename,
        const char *__restrict __modes,
        FILE *__restrict __stream) ;
# 279 "/usr/include/stdio.h" 3 4
extern FILE *fdopen (int __fd, const char *__modes) __attribute__ ((__nothrow__ , __leaf__)) ;
# 292 "/usr/include/stdio.h" 3 4
extern FILE *fmemopen (void *__s, size_t __len, const char *__modes)
  __attribute__ ((__nothrow__ , __leaf__)) ;




extern FILE *open_memstream (char **__bufloc, size_t *__sizeloc) __attribute__ ((__nothrow__ , __leaf__)) ;





extern void setbuf (FILE *__restrict __stream, char *__restrict __buf) __attribute__ ((__nothrow__ , __leaf__));



extern int setvbuf (FILE *__restrict __stream, char *__restrict __buf,
      int __modes, size_t __n) __attribute__ ((__nothrow__ , __leaf__));




extern void setbuffer (FILE *__restrict __stream, char *__restrict __buf,
         size_t __size) __attribute__ ((__nothrow__ , __leaf__));


extern void setlinebuf (FILE *__stream) __attribute__ ((__nothrow__ , __leaf__));







extern int fprintf (FILE *__restrict __stream,
      const char *__restrict __format, ...);




extern int printf (const char *__restrict __format, ...);

extern int sprintf (char *__restrict __s,
      const char *__restrict __format, ...) __attribute__ ((__nothrow__));





extern int vfprintf (FILE *__restrict __s, const char *__restrict __format,
       __gnuc_va_list __arg);




extern int vprintf (const char *__restrict __format, __gnuc_va_list __arg);

extern int vsprintf (char *__restrict __s, const char *__restrict __format,
       __gnuc_va_list __arg) __attribute__ ((__nothrow__));



extern int snprintf (char *__restrict __s, size_t __maxlen,
       const char *__restrict __format, ...)
     __attribute__ ((__nothrow__)) __attribute__ ((__format__ (__printf__, 3, 4)));

extern int vsnprintf (char *__restrict __s, size_t __maxlen,
        const char *__restrict __format, __gnuc_va_list __arg)
     __attribute__ ((__nothrow__)) __attribute__ ((__format__ (__printf__, 3, 0)));
# 379 "/usr/include/stdio.h" 3 4
extern int vdprintf (int __fd, const char *__restrict __fmt,
       __gnuc_va_list __arg)
     __attribute__ ((__format__ (__printf__, 2, 0)));
extern int dprintf (int __fd, const char *__restrict __fmt, ...)
     __attribute__ ((__format__ (__printf__, 2, 3)));







extern int fscanf (FILE *__restrict __stream,
     const char *__restrict __format, ...) ;




extern int scanf (const char *__restrict __format, ...) ;

extern int sscanf (const char *__restrict __s,
     const char *__restrict __format, ...) __attribute__ ((__nothrow__ , __leaf__));






extern int fscanf (FILE *__restrict __stream, const char *__restrict __format, ...) __asm__ ("" "__isoc99_fscanf")

                               ;
extern int scanf (const char *__restrict __format, ...) __asm__ ("" "__isoc99_scanf")
                              ;
extern int sscanf (const char *__restrict __s, const char *__restrict __format, ...) __asm__ ("" "__isoc99_sscanf") __attribute__ ((__nothrow__ , __leaf__))

                      ;
# 432 "/usr/include/stdio.h" 3 4
extern int vfscanf (FILE *__restrict __s, const char *__restrict __format,
      __gnuc_va_list __arg)
     __attribute__ ((__format__ (__scanf__, 2, 0))) ;





extern int vscanf (const char *__restrict __format, __gnuc_va_list __arg)
     __attribute__ ((__format__ (__scanf__, 1, 0))) ;


extern int vsscanf (const char *__restrict __s,
      const char *__restrict __format, __gnuc_va_list __arg)
     __attribute__ ((__nothrow__ , __leaf__)) __attribute__ ((__format__ (__scanf__, 2, 0)));




extern int vfscanf (FILE *__restrict __s, const char *__restrict __format, __gnuc_va_list __arg) __asm__ ("" "__isoc99_vfscanf")



     __attribute__ ((__format__ (__scanf__, 2, 0))) ;
extern int vscanf (const char *__restrict __format, __gnuc_va_list __arg) __asm__ ("" "__isoc99_vscanf")

     __attribute__ ((__format__ (__scanf__, 1, 0))) ;
extern int vsscanf (const char *__restrict __s, const char *__restrict __format, __gnuc_va_list __arg) __asm__ ("" "__isoc99_vsscanf") __attribute__ ((__nothrow__ , __leaf__))



     __attribute__ ((__format__ (__scanf__, 2, 0)));
# 485 "/usr/include/stdio.h" 3 4
extern int fgetc (FILE *__stream);
extern int getc (FILE *__stream);





extern int getchar (void);






extern int getc_unlocked (FILE *__stream);
extern int getchar_unlocked (void);
# 510 "/usr/include/stdio.h" 3 4
extern int fgetc_unlocked (FILE *__stream);
# 521 "/usr/include/stdio.h" 3 4
extern int fputc (int __c, FILE *__stream);
extern int putc (int __c, FILE *__stream);





extern int putchar (int __c);
# 537 "/usr/include/stdio.h" 3 4
extern int fputc_unlocked (int __c, FILE *__stream);







extern int putc_unlocked (int __c, FILE *__stream);
extern int putchar_unlocked (int __c);






extern int getw (FILE *__stream);


extern int putw (int __w, FILE *__stream);







extern char *fgets (char *__restrict __s, int __n, FILE *__restrict __stream)
     ;
# 603 "/usr/include/stdio.h" 3 4
extern __ssize_t __getdelim (char **__restrict __lineptr,
                             size_t *__restrict __n, int __delimiter,
                             FILE *__restrict __stream) ;
extern __ssize_t getdelim (char **__restrict __lineptr,
                           size_t *__restrict __n, int __delimiter,
                           FILE *__restrict __stream) ;







extern __ssize_t getline (char **__restrict __lineptr,
                          size_t *__restrict __n,
                          FILE *__restrict __stream) ;







extern int fputs (const char *__restrict __s, FILE *__restrict __stream);





extern int puts (const char *__s);






extern int ungetc (int __c, FILE *__stream);






extern size_t fread (void *__restrict __ptr, size_t __size,
       size_t __n, FILE *__restrict __stream) ;




extern size_t fwrite (const void *__restrict __ptr, size_t __size,
        size_t __n, FILE *__restrict __s);
# 673 "/usr/include/stdio.h" 3 4
extern size_t fread_unlocked (void *__restrict __ptr, size_t __size,
         size_t __n, FILE *__restrict __stream) ;
extern size_t fwrite_unlocked (const void *__restrict __ptr, size_t __size,
          size_t __n, FILE *__restrict __stream);







extern int fseek (FILE *__stream, long int __off, int __whence);




extern long int ftell (FILE *__stream) ;




extern void rewind (FILE *__stream);
# 707 "/usr/include/stdio.h" 3 4
extern int fseeko (FILE *__stream, __off_t __off, int __whence);




extern __off_t ftello (FILE *__stream) ;
# 731 "/usr/include/stdio.h" 3 4
extern int fgetpos (FILE *__restrict __stream, fpos_t *__restrict __pos);




extern int fsetpos (FILE *__stream, const fpos_t *__pos);
# 757 "/usr/include/stdio.h" 3 4
extern void clearerr (FILE *__stream) __attribute__ ((__nothrow__ , __leaf__));

extern int feof (FILE *__stream) __attribute__ ((__nothrow__ , __leaf__)) ;

extern int ferror (FILE *__stream) __attribute__ ((__nothrow__ , __leaf__)) ;



extern void clearerr_unlocked (FILE *__stream) __attribute__ ((__nothrow__ , __leaf__));
extern int feof_unlocked (FILE *__stream) __attribute__ ((__nothrow__ , __leaf__)) ;
extern int ferror_unlocked (FILE *__stream) __attribute__ ((__nothrow__ , __leaf__)) ;







extern void perror (const char *__s);





# 1 "/usr/include/x86_64-linux-gnu/bits/sys_errlist.h" 1 3 4
# 26 "/usr/include/x86_64-linux-gnu/bits/sys_errlist.h" 3 4
extern int sys_nerr;
extern const char *const sys_errlist[];
# 782 "/usr/include/stdio.h" 2 3 4




extern int fileno (FILE *__stream) __attribute__ ((__nothrow__ , __leaf__)) ;




extern int fileno_unlocked (FILE *__stream) __attribute__ ((__nothrow__ , __leaf__)) ;
# 800 "/usr/include/stdio.h" 3 4
extern FILE *popen (const char *__command, const char *__modes) ;





extern int pclose (FILE *__stream);





extern char *ctermid (char *__s) __attribute__ ((__nothrow__ , __leaf__));
# 840 "/usr/include/stdio.h" 3 4
extern void flockfile (FILE *__stream) __attribute__ ((__nothrow__ , __leaf__));



extern int ftrylockfile (FILE *__stream) __attribute__ ((__nothrow__ , __leaf__)) ;


extern void funlockfile (FILE *__stream) __attribute__ ((__nothrow__ , __leaf__));
# 858 "/usr/include/stdio.h" 3 4
extern int __uflow (FILE *);
extern int __overflow (FILE *, int);
# 873 "/usr/include/stdio.h" 3 4

# 44 "fraction_to_recurring_decimal.c" 2
# 1 "/usr/include/stdlib.h" 1 3 4
# 25 "/usr/include/stdlib.h" 3 4
# 1 "/usr/include/x86_64-linux-gnu/bits/libc-header-start.h" 1 3 4
# 26 "/usr/include/stdlib.h" 2 3 4





# 1 "/usr/lib/gcc/x86_64-linux-gnu/9/include/stddef.h" 1 3 4
# 321 "/usr/lib/gcc/x86_64-linux-gnu/9/include/stddef.h" 3 4
typedef int wchar_t;
# 32 "/usr/include/stdlib.h" 2 3 4







# 1 "/usr/include/x86_64-linux-gnu/bits/waitflags.h" 1 3 4
# 52 "/usr/include/x86_64-linux-gnu/bits/waitflags.h" 3 4
typedef enum
{
  P_ALL,
  P_PID,
  P_PGID
} idtype_t;
# 40 "/usr/include/stdlib.h" 2 3 4
# 1 "/usr/include/x86_64-linux-gnu/bits/waitstatus.h" 1 3 4
# 41 "/usr/include/stdlib.h" 2 3 4
# 55 "/usr/include/stdlib.h" 3 4
# 1 "/usr/include/x86_64-linux-gnu/bits/floatn.h" 1 3 4
# 120 "/usr/include/x86_64-linux-gnu/bits/floatn.h" 3 4
# 1 "/usr/include/x86_64-linux-gnu/bits/floatn-common.h" 1 3 4
# 24 "/usr/include/x86_64-linux-gnu/bits/floatn-common.h" 3 4
# 1 "/usr/include/x86_64-linux-gnu/bits/long-double.h" 1 3 4
# 25 "/usr/include/x86_64-linux-gnu/bits/floatn-common.h" 2 3 4
# 121 "/usr/include/x86_64-linux-gnu/bits/floatn.h" 2 3 4
# 56 "/usr/include/stdlib.h" 2 3 4


typedef struct
  {
    int quot;
    int rem;
  } div_t;



typedef struct
  {
    long int quot;
    long int rem;
  } ldiv_t;





__extension__ typedef struct
  {
    long long int quot;
    long long int rem;
  } lldiv_t;
# 97 "/usr/include/stdlib.h" 3 4
extern size_t __ctype_get_mb_cur_max (void) __attribute__ ((__nothrow__ , __leaf__)) ;



extern double atof (const char *__nptr)
     __attribute__ ((__nothrow__ , __leaf__)) __attribute__ ((__pure__)) __attribute__ ((__nonnull__ (1))) ;

extern int atoi (const char *__nptr)
     __attribute__ ((__nothrow__ , __leaf__)) __attribute__ ((__pure__)) __attribute__ ((__nonnull__ (1))) ;

extern long int atol (const char *__nptr)
     __attribute__ ((__nothrow__ , __leaf__)) __attribute__ ((__pure__)) __attribute__ ((__nonnull__ (1))) ;



__extension__ extern long long int atoll (const char *__nptr)
     __attribute__ ((__nothrow__ , __leaf__)) __attribute__ ((__pure__)) __attribute__ ((__nonnull__ (1))) ;



extern double strtod (const char *__restrict __nptr,
        char **__restrict __endptr)
     __attribute__ ((__nothrow__ , __leaf__)) __attribute__ ((__nonnull__ (1)));



extern float strtof (const char *__restrict __nptr,
       char **__restrict __endptr) __attribute__ ((__nothrow__ , __leaf__)) __attribute__ ((__nonnull__ (1)));

extern long double strtold (const char *__restrict __nptr,
       char **__restrict __endptr)
     __attribute__ ((__nothrow__ , __leaf__)) __attribute__ ((__nonnull__ (1)));
# 176 "/usr/include/stdlib.h" 3 4
extern long int strtol (const char *__restrict __nptr,
   char **__restrict __endptr, int __base)
     __attribute__ ((__nothrow__ , __leaf__)) __attribute__ ((__nonnull__ (1)));

extern unsigned long int strtoul (const char *__restrict __nptr,
      char **__restrict __endptr, int __base)
     __attribute__ ((__nothrow__ , __leaf__)) __attribute__ ((__nonnull__ (1)));



__extension__
extern long long int strtoq (const char *__restrict __nptr,
        char **__restrict __endptr, int __base)
     __attribute__ ((__nothrow__ , __leaf__)) __attribute__ ((__nonnull__ (1)));

__extension__
extern unsigned long long int strtouq (const char *__restrict __nptr,
           char **__restrict __endptr, int __base)
     __attribute__ ((__nothrow__ , __leaf__)) __attribute__ ((__nonnull__ (1)));




__extension__
extern long long int strtoll (const char *__restrict __nptr,
         char **__restrict __endptr, int __base)
     __attribute__ ((__nothrow__ , __leaf__)) __attribute__ ((__nonnull__ (1)));

__extension__
extern unsigned long long int strtoull (const char *__restrict __nptr,
     char **__restrict __endptr, int __base)
     __attribute__ ((__nothrow__ , __leaf__)) __attribute__ ((__nonnull__ (1)));
# 385 "/usr/include/stdlib.h" 3 4
extern char *l64a (long int __n) __attribute__ ((__nothrow__ , __leaf__)) ;


extern long int a64l (const char *__s)
     __attribute__ ((__nothrow__ , __leaf__)) __attribute__ ((__pure__)) __attribute__ ((__nonnull__ (1))) ;




# 1 "/usr/include/x86_64-linux-gnu/sys/types.h" 1 3 4
# 27 "/usr/include/x86_64-linux-gnu/sys/types.h" 3 4






typedef __u_char u_char;
typedef __u_short u_short;
typedef __u_int u_int;
typedef __u_long u_long;
typedef __quad_t quad_t;
typedef __u_quad_t u_quad_t;
typedef __fsid_t fsid_t;


typedef __loff_t loff_t;




typedef __ino_t ino_t;
# 59 "/usr/include/x86_64-linux-gnu/sys/types.h" 3 4
typedef __dev_t dev_t;




typedef __gid_t gid_t;




typedef __mode_t mode_t;




typedef __nlink_t nlink_t;




typedef __uid_t uid_t;
# 97 "/usr/include/x86_64-linux-gnu/sys/types.h" 3 4
typedef __pid_t pid_t;





typedef __id_t id_t;
# 114 "/usr/include/x86_64-linux-gnu/sys/types.h" 3 4
typedef __daddr_t daddr_t;
typedef __caddr_t caddr_t;





typedef __key_t key_t;




# 1 "/usr/include/x86_64-linux-gnu/bits/types/clock_t.h" 1 3 4






typedef __clock_t clock_t;
# 127 "/usr/include/x86_64-linux-gnu/sys/types.h" 2 3 4

# 1 "/usr/include/x86_64-linux-gnu/bits/types/clockid_t.h" 1 3 4






typedef __clockid_t clockid_t;
# 129 "/usr/include/x86_64-linux-gnu/sys/types.h" 2 3 4
# 1 "/usr/include/x86_64-linux-gnu/bits/types/time_t.h" 1 3 4






typedef __time_t time_t;
# 130 "/usr/include/x86_64-linux-gnu/sys/types.h" 2 3 4
# 1 "/usr/include/x86_64-linux-gnu/bits/types/timer_t.h" 1 3 4






typedef __timer_t timer_t;
# 131 "/usr/include/x86_64-linux-gnu/sys/types.h" 2 3 4
# 144 "/usr/include/x86_64-linux-gnu/sys/types.h" 3 4
# 1 "/usr/lib/gcc/x86_64-linux-gnu/9/include/stddef.h" 1 3 4
# 145 "/usr/include/x86_64-linux-gnu/sys/types.h" 2 3 4



typedef unsigned long int ulong;
typedef unsigned short int ushort;
typedef unsigned int uint;




# 1 "/usr/include/x86_64-linux-gnu/bits/stdint-intn.h" 1 3 4
# 24 "/usr/include/x86_64-linux-gnu/bits/stdint-intn.h" 3 4
typedef __int8_t int8_t;
typedef __int16_t int16_t;
typedef __int32_t int32_t;
typedef __int64_t int64_t;
# 156 "/usr/include/x86_64-linux-gnu/sys/types.h" 2 3 4


typedef __uint8_t u_int8_t;
typedef __uint16_t u_int16_t;
typedef __uint32_t u_int32_t;
typedef __uint64_t u_int64_t;


typedef int register_t __attribute__ ((__mode__ (__word__)));
# 176 "/usr/include/x86_64-linux-gnu/sys/types.h" 3 4
# 1 "/usr/include/endian.h" 1 3 4
# 24 "/usr/include/endian.h" 3 4
# 1 "/usr/include/x86_64-linux-gnu/bits/endian.h" 1 3 4
# 35 "/usr/include/x86_64-linux-gnu/bits/endian.h" 3 4
# 1 "/usr/include/x86_64-linux-gnu/bits/endianness.h" 1 3 4
# 36 "/usr/include/x86_64-linux-gnu/bits/endian.h" 2 3 4
# 25 "/usr/include/endian.h" 2 3 4
# 35 "/usr/include/endian.h" 3 4
# 1 "/usr/include/x86_64-linux-gnu/bits/byteswap.h" 1 3 4
# 33 "/usr/include/x86_64-linux-gnu/bits/byteswap.h" 3 4
static __inline __uint16_t
__bswap_16 (__uint16_t __bsx)
{

  return __builtin_bswap16 (__bsx);



}






static __inline __uint32_t
__bswap_32 (__uint32_t __bsx)
{

  return __builtin_bswap32 (__bsx);



}
# 69 "/usr/include/x86_64-linux-gnu/bits/byteswap.h" 3 4
__extension__ static __inline __uint64_t
__bswap_64 (__uint64_t __bsx)
{

  return __builtin_bswap64 (__bsx);



}
# 36 "/usr/include/endian.h" 2 3 4
# 1 "/usr/include/x86_64-linux-gnu/bits/uintn-identity.h" 1 3 4
# 32 "/usr/include/x86_64-linux-gnu/bits/uintn-identity.h" 3 4
static __inline __uint16_t
__uint16_identity (__uint16_t __x)
{
  return __x;
}

static __inline __uint32_t
__uint32_identity (__uint32_t __x)
{
  return __x;
}

static __inline __uint64_t
__uint64_identity (__uint64_t __x)
{
  return __x;
}
# 37 "/usr/include/endian.h" 2 3 4
# 177 "/usr/include/x86_64-linux-gnu/sys/types.h" 2 3 4


# 1 "/usr/include/x86_64-linux-gnu/sys/select.h" 1 3 4
# 30 "/usr/include/x86_64-linux-gnu/sys/select.h" 3 4
# 1 "/usr/include/x86_64-linux-gnu/bits/select.h" 1 3 4
# 22 "/usr/include/x86_64-linux-gnu/bits/select.h" 3 4
# 1 "/usr/include/x86_64-linux-gnu/bits/wordsize.h" 1 3 4
# 23 "/usr/include/x86_64-linux-gnu/bits/select.h" 2 3 4
# 31 "/usr/include/x86_64-linux-gnu/sys/select.h" 2 3 4


# 1 "/usr/include/x86_64-linux-gnu/bits/types/sigset_t.h" 1 3 4



# 1 "/usr/include/x86_64-linux-gnu/bits/types/__sigset_t.h" 1 3 4




typedef struct
{
  unsigned long int __val[(1024 / (8 * sizeof (unsigned long int)))];
} __sigset_t;
# 5 "/usr/include/x86_64-linux-gnu/bits/types/sigset_t.h" 2 3 4


typedef __sigset_t sigset_t;
# 34 "/usr/include/x86_64-linux-gnu/sys/select.h" 2 3 4



# 1 "/usr/include/x86_64-linux-gnu/bits/types/struct_timeval.h" 1 3 4







struct timeval
{
  __time_t tv_sec;
  __suseconds_t tv_usec;
};
# 38 "/usr/include/x86_64-linux-gnu/sys/select.h" 2 3 4

# 1 "/usr/include/x86_64-linux-gnu/bits/types/struct_timespec.h" 1 3 4
# 10 "/usr/include/x86_64-linux-gnu/bits/types/struct_timespec.h" 3 4
struct timespec
{
  __time_t tv_sec;



  __syscall_slong_t tv_nsec;
# 26 "/usr/include/x86_64-linux-gnu/bits/types/struct_timespec.h" 3 4
};
# 40 "/usr/include/x86_64-linux-gnu/sys/select.h" 2 3 4



typedef __suseconds_t suseconds_t;





typedef long int __fd_mask;
# 59 "/usr/include/x86_64-linux-gnu/sys/select.h" 3 4
typedef struct
  {






    __fd_mask __fds_bits[1024 / (8 * (int) sizeof (__fd_mask))];


  } fd_set;






typedef __fd_mask fd_mask;
# 91 "/usr/include/x86_64-linux-gnu/sys/select.h" 3 4

# 101 "/usr/include/x86_64-linux-gnu/sys/select.h" 3 4
extern int select (int __nfds, fd_set *__restrict __readfds,
     fd_set *__restrict __writefds,
     fd_set *__restrict __exceptfds,
     struct timeval *__restrict __timeout);
# 113 "/usr/include/x86_64-linux-gnu/sys/select.h" 3 4
extern int pselect (int __nfds, fd_set *__restrict __readfds,
      fd_set *__restrict __writefds,
      fd_set *__restrict __exceptfds,
      const struct timespec *__restrict __timeout,
      const __sigset_t *__restrict __sigmask);
# 126 "/usr/include/x86_64-linux-gnu/sys/select.h" 3 4

# 180 "/usr/include/x86_64-linux-gnu/sys/types.h" 2 3 4





typedef __blksize_t blksize_t;






typedef __blkcnt_t blkcnt_t;



typedef __fsblkcnt_t fsblkcnt_t;



typedef __fsfilcnt_t fsfilcnt_t;
# 227 "/usr/include/x86_64-linux-gnu/sys/types.h" 3 4
# 1 "/usr/include/x86_64-linux-gnu/bits/pthreadtypes.h" 1 3 4
# 23 "/usr/include/x86_64-linux-gnu/bits/pthreadtypes.h" 3 4
# 1 "/usr/include/x86_64-linux-gnu/bits/thread-shared-types.h" 1 3 4
# 44 "/usr/include/x86_64-linux-gnu/bits/thread-shared-types.h" 3 4
# 1 "/usr/include/x86_64-linux-gnu/bits/pthreadtypes-arch.h" 1 3 4
# 21 "/usr/include/x86_64-linux-gnu/bits/pthreadtypes-arch.h" 3 4
# 1 "/usr/include/x86_64-linux-gnu/bits/wordsize.h" 1 3 4
# 22 "/usr/include/x86_64-linux-gnu/bits/pthreadtypes-arch.h" 2 3 4
# 45 "/usr/include/x86_64-linux-gnu/bits/thread-shared-types.h" 2 3 4




typedef struct __pthread_internal_list
{
  struct __pthread_internal_list *__prev;
  struct __pthread_internal_list *__next;
} __pthread_list_t;

typedef struct __pthread_internal_slist
{
  struct __pthread_internal_slist *__next;
} __pthread_slist_t;
# 74 "/usr/include/x86_64-linux-gnu/bits/thread-shared-types.h" 3 4
# 1 "/usr/include/x86_64-linux-gnu/bits/struct_mutex.h" 1 3 4
# 22 "/usr/include/x86_64-linux-gnu/bits/struct_mutex.h" 3 4
struct __pthread_mutex_s
{
  int __lock;
  unsigned int __count;
  int __owner;

  unsigned int __nusers;



  int __kind;

  short __spins;
  short __elision;
  __pthread_list_t __list;
# 53 "/usr/include/x86_64-linux-gnu/bits/struct_mutex.h" 3 4
};
# 75 "/usr/include/x86_64-linux-gnu/bits/thread-shared-types.h" 2 3 4
# 87 "/usr/include/x86_64-linux-gnu/bits/thread-shared-types.h" 3 4
# 1 "/usr/include/x86_64-linux-gnu/bits/struct_rwlock.h" 1 3 4
# 23 "/usr/include/x86_64-linux-gnu/bits/struct_rwlock.h" 3 4
struct __pthread_rwlock_arch_t
{
  unsigned int __readers;
  unsigned int __writers;
  unsigned int __wrphase_futex;
  unsigned int __writers_futex;
  unsigned int __pad3;
  unsigned int __pad4;

  int __cur_writer;
  int __shared;
  signed char __rwelision;




  unsigned char __pad1[7];


  unsigned long int __pad2;


  unsigned int __flags;
# 55 "/usr/include/x86_64-linux-gnu/bits/struct_rwlock.h" 3 4
};
# 88 "/usr/include/x86_64-linux-gnu/bits/thread-shared-types.h" 2 3 4




struct __pthread_cond_s
{
  __extension__ union
  {
    __extension__ unsigned long long int __wseq;
    struct
    {
      unsigned int __low;
      unsigned int __high;
    } __wseq32;
  };
  __extension__ union
  {
    __extension__ unsigned long long int __g1_start;
    struct
    {
      unsigned int __low;
      unsigned int __high;
    } __g1_start32;
  };
  unsigned int __g_refs[2] ;
  unsigned int __g_size[2];
  unsigned int __g1_orig_size;
  unsigned int __wrefs;
  unsigned int __g_signals[2];
};
# 24 "/usr/include/x86_64-linux-gnu/bits/pthreadtypes.h" 2 3 4



typedef unsigned long int pthread_t;




typedef union
{
  char __size[4];
  int __align;
} pthread_mutexattr_t;




typedef union
{
  char __size[4];
  int __align;
} pthread_condattr_t;



typedef unsigned int pthread_key_t;



typedef int pthread_once_t;


union pthread_attr_t
{
  char __size[56];
  long int __align;
};

typedef union pthread_attr_t pthread_attr_t;




typedef union
{
  struct __pthread_mutex_s __data;
  char __size[40];
  long int __align;
} pthread_mutex_t;


typedef union
{
  struct __pthread_cond_s __data;
  char __size[48];
  __extension__ long long int __align;
} pthread_cond_t;





typedef union
{
  struct __pthread_rwlock_arch_t __data;
  char __size[56];
  long int __align;
} pthread_rwlock_t;

typedef union
{
  char __size[8];
  long int __align;
} pthread_rwlockattr_t;





typedef volatile int pthread_spinlock_t;




typedef union
{
  char __size[32];
  long int __align;
} pthread_barrier_t;

typedef union
{
  char __size[4];
  int __align;
} pthread_barrierattr_t;
# 228 "/usr/include/x86_64-linux-gnu/sys/types.h" 2 3 4



# 395 "/usr/include/stdlib.h" 2 3 4






extern long int random (void) __attribute__ ((__nothrow__ , __leaf__));


extern void srandom (unsigned int __seed) __attribute__ ((__nothrow__ , __leaf__));





extern char *initstate (unsigned int __seed, char *__statebuf,
   size_t __statelen) __attribute__ ((__nothrow__ , __leaf__)) __attribute__ ((__nonnull__ (2)));



extern char *setstate (char *__statebuf) __attribute__ ((__nothrow__ , __leaf__)) __attribute__ ((__nonnull__ (1)));







struct random_data
  {
    int32_t *fptr;
    int32_t *rptr;
    int32_t *state;
    int rand_type;
    int rand_deg;
    int rand_sep;
    int32_t *end_ptr;
  };

extern int random_r (struct random_data *__restrict __buf,
       int32_t *__restrict __result) __attribute__ ((__nothrow__ , __leaf__)) __attribute__ ((__nonnull__ (1, 2)));

extern int srandom_r (unsigned int __seed, struct random_data *__buf)
     __attribute__ ((__nothrow__ , __leaf__)) __attribute__ ((__nonnull__ (2)));

extern int initstate_r (unsigned int __seed, char *__restrict __statebuf,
   size_t __statelen,
   struct random_data *__restrict __buf)
     __attribute__ ((__nothrow__ , __leaf__)) __attribute__ ((__nonnull__ (2, 4)));

extern int setstate_r (char *__restrict __statebuf,
         struct random_data *__restrict __buf)
     __attribute__ ((__nothrow__ , __leaf__)) __attribute__ ((__nonnull__ (1, 2)));





extern int rand (void) __attribute__ ((__nothrow__ , __leaf__));

extern void srand (unsigned int __seed) __attribute__ ((__nothrow__ , __leaf__));



extern int rand_r (unsigned int *__seed) __attribute__ ((__nothrow__ , __leaf__));







extern double drand48 (void) __attribute__ ((__nothrow__ , __leaf__));
extern double erand48 (unsigned short int __xsubi[3]) __attribute__ ((__nothrow__ , __leaf__)) __attribute__ ((__nonnull__ (1)));


extern long int lrand48 (void) __attribute__ ((__nothrow__ , __leaf__));
extern long int nrand48 (unsigned short int __xsubi[3])
     __attribute__ ((__nothrow__ , __leaf__)) __attribute__ ((__nonnull__ (1)));


extern long int mrand48 (void) __attribute__ ((__nothrow__ , __leaf__));
extern long int jrand48 (unsigned short int __xsubi[3])
     __attribute__ ((__nothrow__ , __leaf__)) __attribute__ ((__nonnull__ (1)));


extern void srand48 (long int __seedval) __attribute__ ((__nothrow__ , __leaf__));
extern unsigned short int *seed48 (unsigned short int __seed16v[3])
     __attribute__ ((__nothrow__ , __leaf__)) __attribute__ ((__nonnull__ (1)));
extern void lcong48 (unsigned short int __param[7]) __attribute__ ((__nothrow__ , __leaf__)) __attribute__ ((__nonnull__ (1)));





struct drand48_data
  {
    unsigned short int __x[3];
    unsigned short int __old_x[3];
    unsigned short int __c;
    unsigned short int __init;
    __extension__ unsigned long long int __a;

  };


extern int drand48_r (struct drand48_data *__restrict __buffer,
        double *__restrict __result) __attribute__ ((__nothrow__ , __leaf__)) __attribute__ ((__nonnull__ (1, 2)));
extern int erand48_r (unsigned short int __xsubi[3],
        struct drand48_data *__restrict __buffer,
        double *__restrict __result) __attribute__ ((__nothrow__ , __leaf__)) __attribute__ ((__nonnull__ (1, 2)));


extern int lrand48_r (struct drand48_data *__restrict __buffer,
        long int *__restrict __result)
     __attribute__ ((__nothrow__ , __leaf__)) __attribute__ ((__nonnull__ (1, 2)));
extern int nrand48_r (unsigned short int __xsubi[3],
        struct drand48_data *__restrict __buffer,
        long int *__restrict __result)
     __attribute__ ((__nothrow__ , __leaf__)) __attribute__ ((__nonnull__ (1, 2)));


extern int mrand48_r (struct drand48_data *__restrict __buffer,
        long int *__restrict __result)
     __attribute__ ((__nothrow__ , __leaf__)) __attribute__ ((__nonnull__ (1, 2)));
extern int jrand48_r (unsigned short int __xsubi[3],
        struct drand48_data *__restrict __buffer,
        long int *__restrict __result)
     __attribute__ ((__nothrow__ , __leaf__)) __attribute__ ((__nonnull__ (1, 2)));


extern int srand48_r (long int __seedval, struct drand48_data *__buffer)
     __attribute__ ((__nothrow__ , __leaf__)) __attribute__ ((__nonnull__ (2)));

extern int seed48_r (unsigned short int __seed16v[3],
       struct drand48_data *__buffer) __attribute__ ((__nothrow__ , __leaf__)) __attribute__ ((__nonnull__ (1, 2)));

extern int lcong48_r (unsigned short int __param[7],
        struct drand48_data *__buffer)
     __attribute__ ((__nothrow__ , __leaf__)) __attribute__ ((__nonnull__ (1, 2)));




extern void *malloc (size_t __size) __attribute__ ((__nothrow__ , __leaf__)) __attribute__ ((__malloc__))
     __attribute__ ((__alloc_size__ (1))) ;

extern void *calloc (size_t __nmemb, size_t __size)
     __attribute__ ((__nothrow__ , __leaf__)) __attribute__ ((__malloc__)) __attribute__ ((__alloc_size__ (1, 2))) ;






extern void *realloc (void *__ptr, size_t __size)
     __attribute__ ((__nothrow__ , __leaf__)) __attribute__ ((__warn_unused_result__)) __attribute__ ((__alloc_size__ (2)));







extern void *reallocarray (void *__ptr, size_t __nmemb, size_t __size)
     __attribute__ ((__nothrow__ , __leaf__)) __attribute__ ((__warn_unused_result__))
     __attribute__ ((__alloc_size__ (2, 3)));



extern void free (void *__ptr) __attribute__ ((__nothrow__ , __leaf__));


# 1 "/usr/include/alloca.h" 1 3 4
# 24 "/usr/include/alloca.h" 3 4
# 1 "/usr/lib/gcc/x86_64-linux-gnu/9/include/stddef.h" 1 3 4
# 25 "/usr/include/alloca.h" 2 3 4







extern void *alloca (size_t __size) __attribute__ ((__nothrow__ , __leaf__));






# 569 "/usr/include/stdlib.h" 2 3 4





extern void *valloc (size_t __size) __attribute__ ((__nothrow__ , __leaf__)) __attribute__ ((__malloc__))
     __attribute__ ((__alloc_size__ (1))) ;




extern int posix_memalign (void **__memptr, size_t __alignment, size_t __size)
     __attribute__ ((__nothrow__ , __leaf__)) __attribute__ ((__nonnull__ (1))) ;




extern void *aligned_alloc (size_t __alignment, size_t __size)
     __attribute__ ((__nothrow__ , __leaf__)) __attribute__ ((__malloc__)) __attribute__ ((__alloc_size__ (2))) ;



extern void abort (void) __attribute__ ((__nothrow__ , __leaf__)) __attribute__ ((__noreturn__));



extern int atexit (void (*__func) (void)) __attribute__ ((__nothrow__ , __leaf__)) __attribute__ ((__nonnull__ (1)));







extern int at_quick_exit (void (*__func) (void)) __attribute__ ((__nothrow__ , __leaf__)) __attribute__ ((__nonnull__ (1)));






extern int on_exit (void (*__func) (int __status, void *__arg), void *__arg)
     __attribute__ ((__nothrow__ , __leaf__)) __attribute__ ((__nonnull__ (1)));





extern void exit (int __status) __attribute__ ((__nothrow__ , __leaf__)) __attribute__ ((__noreturn__));





extern void quick_exit (int __status) __attribute__ ((__nothrow__ , __leaf__)) __attribute__ ((__noreturn__));





extern void _Exit (int __status) __attribute__ ((__nothrow__ , __leaf__)) __attribute__ ((__noreturn__));




extern char *getenv (const char *__name) __attribute__ ((__nothrow__ , __leaf__)) __attribute__ ((__nonnull__ (1))) ;
# 647 "/usr/include/stdlib.h" 3 4
extern int putenv (char *__string) __attribute__ ((__nothrow__ , __leaf__)) __attribute__ ((__nonnull__ (1)));





extern int setenv (const char *__name, const char *__value, int __replace)
     __attribute__ ((__nothrow__ , __leaf__)) __attribute__ ((__nonnull__ (2)));


extern int unsetenv (const char *__name) __attribute__ ((__nothrow__ , __leaf__)) __attribute__ ((__nonnull__ (1)));






extern int clearenv (void) __attribute__ ((__nothrow__ , __leaf__));
# 675 "/usr/include/stdlib.h" 3 4
extern char *mktemp (char *__template) __attribute__ ((__nothrow__ , __leaf__)) __attribute__ ((__nonnull__ (1)));
# 688 "/usr/include/stdlib.h" 3 4
extern int mkstemp (char *__template) __attribute__ ((__nonnull__ (1))) ;
# 710 "/usr/include/stdlib.h" 3 4
extern int mkstemps (char *__template, int __suffixlen) __attribute__ ((__nonnull__ (1))) ;
# 731 "/usr/include/stdlib.h" 3 4
extern char *mkdtemp (char *__template) __attribute__ ((__nothrow__ , __leaf__)) __attribute__ ((__nonnull__ (1))) ;
# 784 "/usr/include/stdlib.h" 3 4
extern int system (const char *__command) ;
# 800 "/usr/include/stdlib.h" 3 4
extern char *realpath (const char *__restrict __name,
         char *__restrict __resolved) __attribute__ ((__nothrow__ , __leaf__)) ;






typedef int (*__compar_fn_t) (const void *, const void *);
# 820 "/usr/include/stdlib.h" 3 4
extern void *bsearch (const void *__key, const void *__base,
        size_t __nmemb, size_t __size, __compar_fn_t __compar)
     __attribute__ ((__nonnull__ (1, 2, 5))) ;







extern void qsort (void *__base, size_t __nmemb, size_t __size,
     __compar_fn_t __compar) __attribute__ ((__nonnull__ (1, 4)));
# 840 "/usr/include/stdlib.h" 3 4
extern int abs (int __x) __attribute__ ((__nothrow__ , __leaf__)) __attribute__ ((__const__)) ;
extern long int labs (long int __x) __attribute__ ((__nothrow__ , __leaf__)) __attribute__ ((__const__)) ;


__extension__ extern long long int llabs (long long int __x)
     __attribute__ ((__nothrow__ , __leaf__)) __attribute__ ((__const__)) ;






extern div_t div (int __numer, int __denom)
     __attribute__ ((__nothrow__ , __leaf__)) __attribute__ ((__const__)) ;
extern ldiv_t ldiv (long int __numer, long int __denom)
     __attribute__ ((__nothrow__ , __leaf__)) __attribute__ ((__const__)) ;


__extension__ extern lldiv_t lldiv (long long int __numer,
        long long int __denom)
     __attribute__ ((__nothrow__ , __leaf__)) __attribute__ ((__const__)) ;
# 872 "/usr/include/stdlib.h" 3 4
extern char *ecvt (double __value, int __ndigit, int *__restrict __decpt,
     int *__restrict __sign) __attribute__ ((__nothrow__ , __leaf__)) __attribute__ ((__nonnull__ (3, 4))) ;




extern char *fcvt (double __value, int __ndigit, int *__restrict __decpt,
     int *__restrict __sign) __attribute__ ((__nothrow__ , __leaf__)) __attribute__ ((__nonnull__ (3, 4))) ;




extern char *gcvt (double __value, int __ndigit, char *__buf)
     __attribute__ ((__nothrow__ , __leaf__)) __attribute__ ((__nonnull__ (3))) ;




extern char *qecvt (long double __value, int __ndigit,
      int *__restrict __decpt, int *__restrict __sign)
     __attribute__ ((__nothrow__ , __leaf__)) __attribute__ ((__nonnull__ (3, 4))) ;
extern char *qfcvt (long double __value, int __ndigit,
      int *__restrict __decpt, int *__restrict __sign)
     __attribute__ ((__nothrow__ , __leaf__)) __attribute__ ((__nonnull__ (3, 4))) ;
extern char *qgcvt (long double __value, int __ndigit, char *__buf)
     __attribute__ ((__nothrow__ , __leaf__)) __attribute__ ((__nonnull__ (3))) ;




extern int ecvt_r (double __value, int __ndigit, int *__restrict __decpt,
     int *__restrict __sign, char *__restrict __buf,
     size_t __len) __attribute__ ((__nothrow__ , __leaf__)) __attribute__ ((__nonnull__ (3, 4, 5)));
extern int fcvt_r (double __value, int __ndigit, int *__restrict __decpt,
     int *__restrict __sign, char *__restrict __buf,
     size_t __len) __attribute__ ((__nothrow__ , __leaf__)) __attribute__ ((__nonnull__ (3, 4, 5)));

extern int qecvt_r (long double __value, int __ndigit,
      int *__restrict __decpt, int *__restrict __sign,
      char *__restrict __buf, size_t __len)
     __attribute__ ((__nothrow__ , __leaf__)) __attribute__ ((__nonnull__ (3, 4, 5)));
extern int qfcvt_r (long double __value, int __ndigit,
      int *__restrict __decpt, int *__restrict __sign,
      char *__restrict __buf, size_t __len)
     __attribute__ ((__nothrow__ , __leaf__)) __attribute__ ((__nonnull__ (3, 4, 5)));





extern int mblen (const char *__s, size_t __n) __attribute__ ((__nothrow__ , __leaf__));


extern int mbtowc (wchar_t *__restrict __pwc,
     const char *__restrict __s, size_t __n) __attribute__ ((__nothrow__ , __leaf__));


extern int wctomb (char *__s, wchar_t __wchar) __attribute__ ((__nothrow__ , __leaf__));



extern size_t mbstowcs (wchar_t *__restrict __pwcs,
   const char *__restrict __s, size_t __n) __attribute__ ((__nothrow__ , __leaf__));

extern size_t wcstombs (char *__restrict __s,
   const wchar_t *__restrict __pwcs, size_t __n)
     __attribute__ ((__nothrow__ , __leaf__));







extern int rpmatch (const char *__response) __attribute__ ((__nothrow__ , __leaf__)) __attribute__ ((__nonnull__ (1))) ;
# 957 "/usr/include/stdlib.h" 3 4
extern int getsubopt (char **__restrict __optionp,
        char *const *__restrict __tokens,
        char **__restrict __valuep)
     __attribute__ ((__nothrow__ , __leaf__)) __attribute__ ((__nonnull__ (1, 2, 3))) ;
# 1003 "/usr/include/stdlib.h" 3 4
extern int getloadavg (double __loadavg[], int __nelem)
     __attribute__ ((__nothrow__ , __leaf__)) __attribute__ ((__nonnull__ (1)));
# 1013 "/usr/include/stdlib.h" 3 4
# 1 "/usr/include/x86_64-linux-gnu/bits/stdlib-float.h" 1 3 4
# 1014 "/usr/include/stdlib.h" 2 3 4
# 1023 "/usr/include/stdlib.h" 3 4

# 45 "fraction_to_recurring_decimal.c" 2
# 1 "/usr/lib/gcc/x86_64-linux-gnu/9/include/stdbool.h" 1 3 4
# 46 "fraction_to_recurring_decimal.c" 2
# 1 "/usr/include/string.h" 1 3 4
# 26 "/usr/include/string.h" 3 4
# 1 "/usr/include/x86_64-linux-gnu/bits/libc-header-start.h" 1 3 4
# 27 "/usr/include/string.h" 2 3 4






# 1 "/usr/lib/gcc/x86_64-linux-gnu/9/include/stddef.h" 1 3 4
# 34 "/usr/include/string.h" 2 3 4
# 43 "/usr/include/string.h" 3 4
extern void *memcpy (void *__restrict __dest, const void *__restrict __src,
       size_t __n) __attribute__ ((__nothrow__ , __leaf__)) __attribute__ ((__nonnull__ (1, 2)));


extern void *memmove (void *__dest, const void *__src, size_t __n)
     __attribute__ ((__nothrow__ , __leaf__)) __attribute__ ((__nonnull__ (1, 2)));





extern void *memccpy (void *__restrict __dest, const void *__restrict __src,
        int __c, size_t __n)
     __attribute__ ((__nothrow__ , __leaf__)) __attribute__ ((__nonnull__ (1, 2)));




extern void *memset (void *__s, int __c, size_t __n) __attribute__ ((__nothrow__ , __leaf__)) __attribute__ ((__nonnull__ (1)));


extern int memcmp (const void *__s1, const void *__s2, size_t __n)
     __attribute__ ((__nothrow__ , __leaf__)) __attribute__ ((__pure__)) __attribute__ ((__nonnull__ (1, 2)));
# 91 "/usr/include/string.h" 3 4
extern void *memchr (const void *__s, int __c, size_t __n)
      __attribute__ ((__nothrow__ , __leaf__)) __attribute__ ((__pure__)) __attribute__ ((__nonnull__ (1)));
# 122 "/usr/include/string.h" 3 4
extern char *strcpy (char *__restrict __dest, const char *__restrict __src)
     __attribute__ ((__nothrow__ , __leaf__)) __attribute__ ((__nonnull__ (1, 2)));

extern char *strncpy (char *__restrict __dest,
        const char *__restrict __src, size_t __n)
     __attribute__ ((__nothrow__ , __leaf__)) __attribute__ ((__nonnull__ (1, 2)));


extern char *strcat (char *__restrict __dest, const char *__restrict __src)
     __attribute__ ((__nothrow__ , __leaf__)) __attribute__ ((__nonnull__ (1, 2)));

extern char *strncat (char *__restrict __dest, const char *__restrict __src,
        size_t __n) __attribute__ ((__nothrow__ , __leaf__)) __attribute__ ((__nonnull__ (1, 2)));


extern int strcmp (const char *__s1, const char *__s2)
     __attribute__ ((__nothrow__ , __leaf__)) __attribute__ ((__pure__)) __attribute__ ((__nonnull__ (1, 2)));

extern int strncmp (const char *__s1, const char *__s2, size_t __n)
     __attribute__ ((__nothrow__ , __leaf__)) __attribute__ ((__pure__)) __attribute__ ((__nonnull__ (1, 2)));


extern int strcoll (const char *__s1, const char *__s2)
     __attribute__ ((__nothrow__ , __leaf__)) __attribute__ ((__pure__)) __attribute__ ((__nonnull__ (1, 2)));

extern size_t strxfrm (char *__restrict __dest,
         const char *__restrict __src, size_t __n)
     __attribute__ ((__nothrow__ , __leaf__)) __attribute__ ((__nonnull__ (2)));



# 1 "/usr/include/x86_64-linux-gnu/bits/types/locale_t.h" 1 3 4
# 22 "/usr/include/x86_64-linux-gnu/bits/types/locale_t.h" 3 4
# 1 "/usr/include/x86_64-linux-gnu/bits/types/__locale_t.h" 1 3 4
# 28 "/usr/include/x86_64-linux-gnu/bits/types/__locale_t.h" 3 4
struct __locale_struct
{

  struct __locale_data *__locales[13];


  const unsigned short int *__ctype_b;
  const int *__ctype_tolower;
  const int *__ctype_toupper;


  const char *__names[13];
};

typedef struct __locale_struct *__locale_t;
# 23 "/usr/include/x86_64-linux-gnu/bits/types/locale_t.h" 2 3 4

typedef __locale_t locale_t;
# 154 "/usr/include/string.h" 2 3 4


extern int strcoll_l (const char *__s1, const char *__s2, locale_t __l)
     __attribute__ ((__nothrow__ , __leaf__)) __attribute__ ((__pure__)) __attribute__ ((__nonnull__ (1, 2, 3)));


extern size_t strxfrm_l (char *__dest, const char *__src, size_t __n,
    locale_t __l) __attribute__ ((__nothrow__ , __leaf__)) __attribute__ ((__nonnull__ (2, 4)));





extern char *strdup (const char *__s)
     __attribute__ ((__nothrow__ , __leaf__)) __attribute__ ((__malloc__)) __attribute__ ((__nonnull__ (1)));






extern char *strndup (const char *__string, size_t __n)
     __attribute__ ((__nothrow__ , __leaf__)) __attribute__ ((__malloc__)) __attribute__ ((__nonnull__ (1)));
# 226 "/usr/include/string.h" 3 4
extern char *strchr (const char *__s, int __c)
     __attribute__ ((__nothrow__ , __leaf__)) __attribute__ ((__pure__)) __attribute__ ((__nonnull__ (1)));
# 253 "/usr/include/string.h" 3 4
extern char *strrchr (const char *__s, int __c)
     __attribute__ ((__nothrow__ , __leaf__)) __attribute__ ((__pure__)) __attribute__ ((__nonnull__ (1)));
# 273 "/usr/include/string.h" 3 4
extern size_t strcspn (const char *__s, const char *__reject)
     __attribute__ ((__nothrow__ , __leaf__)) __attribute__ ((__pure__)) __attribute__ ((__nonnull__ (1, 2)));


extern size_t strspn (const char *__s, const char *__accept)
     __attribute__ ((__nothrow__ , __leaf__)) __attribute__ ((__pure__)) __attribute__ ((__nonnull__ (1, 2)));
# 303 "/usr/include/string.h" 3 4
extern char *strpbrk (const char *__s, const char *__accept)
     __attribute__ ((__nothrow__ , __leaf__)) __attribute__ ((__pure__)) __attribute__ ((__nonnull__ (1, 2)));
# 330 "/usr/include/string.h" 3 4
extern char *strstr (const char *__haystack, const char *__needle)
     __attribute__ ((__nothrow__ , __leaf__)) __attribute__ ((__pure__)) __attribute__ ((__nonnull__ (1, 2)));




extern char *strtok (char *__restrict __s, const char *__restrict __delim)
     __attribute__ ((__nothrow__ , __leaf__)) __attribute__ ((__nonnull__ (2)));



extern char *__strtok_r (char *__restrict __s,
    const char *__restrict __delim,
    char **__restrict __save_ptr)
     __attribute__ ((__nothrow__ , __leaf__)) __attribute__ ((__nonnull__ (2, 3)));

extern char *strtok_r (char *__restrict __s, const char *__restrict __delim,
         char **__restrict __save_ptr)
     __attribute__ ((__nothrow__ , __leaf__)) __attribute__ ((__nonnull__ (2, 3)));
# 385 "/usr/include/string.h" 3 4
extern size_t strlen (const char *__s)
     __attribute__ ((__nothrow__ , __leaf__)) __attribute__ ((__pure__)) __attribute__ ((__nonnull__ (1)));




extern size_t strnlen (const char *__string, size_t __maxlen)
     __attribute__ ((__nothrow__ , __leaf__)) __attribute__ ((__pure__)) __attribute__ ((__nonnull__ (1)));




extern char *strerror (int __errnum) __attribute__ ((__nothrow__ , __leaf__));
# 410 "/usr/include/string.h" 3 4
extern int strerror_r (int __errnum, char *__buf, size_t __buflen) __asm__ ("" "__xpg_strerror_r") __attribute__ ((__nothrow__ , __leaf__))

                        __attribute__ ((__nonnull__ (2)));
# 428 "/usr/include/string.h" 3 4
extern char *strerror_l (int __errnum, locale_t __l) __attribute__ ((__nothrow__ , __leaf__));



# 1 "/usr/include/strings.h" 1 3 4
# 23 "/usr/include/strings.h" 3 4
# 1 "/usr/lib/gcc/x86_64-linux-gnu/9/include/stddef.h" 1 3 4
# 24 "/usr/include/strings.h" 2 3 4










extern int bcmp (const void *__s1, const void *__s2, size_t __n)
     __attribute__ ((__nothrow__ , __leaf__)) __attribute__ ((__pure__)) __attribute__ ((__nonnull__ (1, 2)));


extern void bcopy (const void *__src, void *__dest, size_t __n)
  __attribute__ ((__nothrow__ , __leaf__)) __attribute__ ((__nonnull__ (1, 2)));


extern void bzero (void *__s, size_t __n) __attribute__ ((__nothrow__ , __leaf__)) __attribute__ ((__nonnull__ (1)));
# 68 "/usr/include/strings.h" 3 4
extern char *index (const char *__s, int __c)
     __attribute__ ((__nothrow__ , __leaf__)) __attribute__ ((__pure__)) __attribute__ ((__nonnull__ (1)));
# 96 "/usr/include/strings.h" 3 4
extern char *rindex (const char *__s, int __c)
     __attribute__ ((__nothrow__ , __leaf__)) __attribute__ ((__pure__)) __attribute__ ((__nonnull__ (1)));






extern int ffs (int __i) __attribute__ ((__nothrow__ , __leaf__)) __attribute__ ((__const__));





extern int ffsl (long int __l) __attribute__ ((__nothrow__ , __leaf__)) __attribute__ ((__const__));
__extension__ extern int ffsll (long long int __ll)
     __attribute__ ((__nothrow__ , __leaf__)) __attribute__ ((__const__));



extern int strcasecmp (const char *__s1, const char *__s2)
     __attribute__ ((__nothrow__ , __leaf__)) __attribute__ ((__pure__)) __attribute__ ((__nonnull__ (1, 2)));


extern int strncasecmp (const char *__s1, const char *__s2, size_t __n)
     __attribute__ ((__nothrow__ , __leaf__)) __attribute__ ((__pure__)) __attribute__ ((__nonnull__ (1, 2)));






extern int strcasecmp_l (const char *__s1, const char *__s2, locale_t __loc)
     __attribute__ ((__nothrow__ , __leaf__)) __attribute__ ((__pure__)) __attribute__ ((__nonnull__ (1, 2, 3)));



extern int strncasecmp_l (const char *__s1, const char *__s2,
     size_t __n, locale_t __loc)
     __attribute__ ((__nothrow__ , __leaf__)) __attribute__ ((__pure__)) __attribute__ ((__nonnull__ (1, 2, 4)));



# 433 "/usr/include/string.h" 2 3 4



extern void explicit_bzero (void *__s, size_t __n) __attribute__ ((__nothrow__ , __leaf__)) __attribute__ ((__nonnull__ (1)));



extern char *strsep (char **__restrict __stringp,
       const char *__restrict __delim)
     __attribute__ ((__nothrow__ , __leaf__)) __attribute__ ((__nonnull__ (1, 2)));




extern char *strsignal (int __sig) __attribute__ ((__nothrow__ , __leaf__));


extern char *__stpcpy (char *__restrict __dest, const char *__restrict __src)
     __attribute__ ((__nothrow__ , __leaf__)) __attribute__ ((__nonnull__ (1, 2)));
extern char *stpcpy (char *__restrict __dest, const char *__restrict __src)
     __attribute__ ((__nothrow__ , __leaf__)) __attribute__ ((__nonnull__ (1, 2)));



extern char *__stpncpy (char *__restrict __dest,
   const char *__restrict __src, size_t __n)
     __attribute__ ((__nothrow__ , __leaf__)) __attribute__ ((__nonnull__ (1, 2)));
extern char *stpncpy (char *__restrict __dest,
        const char *__restrict __src, size_t __n)
     __attribute__ ((__nothrow__ , __leaf__)) __attribute__ ((__nonnull__ (1, 2)));
# 499 "/usr/include/string.h" 3 4

# 47 "fraction_to_recurring_decimal.c" 2
# 1 "/usr/lib/gcc/x86_64-linux-gnu/9/include/limits.h" 1 3 4
# 34 "/usr/lib/gcc/x86_64-linux-gnu/9/include/limits.h" 3 4
# 1 "/usr/lib/gcc/x86_64-linux-gnu/9/include/syslimits.h" 1 3 4






# 1 "/usr/lib/gcc/x86_64-linux-gnu/9/include/limits.h" 1 3 4
# 194 "/usr/lib/gcc/x86_64-linux-gnu/9/include/limits.h" 3 4
# 1 "/usr/include/limits.h" 1 3 4
# 26 "/usr/include/limits.h" 3 4
# 1 "/usr/include/x86_64-linux-gnu/bits/libc-header-start.h" 1 3 4
# 27 "/usr/include/limits.h" 2 3 4
# 183 "/usr/include/limits.h" 3 4
# 1 "/usr/include/x86_64-linux-gnu/bits/posix1_lim.h" 1 3 4
# 27 "/usr/include/x86_64-linux-gnu/bits/posix1_lim.h" 3 4
# 1 "/usr/include/x86_64-linux-gnu/bits/wordsize.h" 1 3 4
# 28 "/usr/include/x86_64-linux-gnu/bits/posix1_lim.h" 2 3 4
# 161 "/usr/include/x86_64-linux-gnu/bits/posix1_lim.h" 3 4
# 1 "/usr/include/x86_64-linux-gnu/bits/local_lim.h" 1 3 4
# 38 "/usr/include/x86_64-linux-gnu/bits/local_lim.h" 3 4
# 1 "/usr/include/linux/limits.h" 1 3 4
# 39 "/usr/include/x86_64-linux-gnu/bits/local_lim.h" 2 3 4
# 162 "/usr/include/x86_64-linux-gnu/bits/posix1_lim.h" 2 3 4
# 184 "/usr/include/limits.h" 2 3 4



# 1 "/usr/include/x86_64-linux-gnu/bits/posix2_lim.h" 1 3 4
# 188 "/usr/include/limits.h" 2 3 4
# 195 "/usr/lib/gcc/x86_64-linux-gnu/9/include/limits.h" 2 3 4
# 8 "/usr/lib/gcc/x86_64-linux-gnu/9/include/syslimits.h" 2 3 4
# 35 "/usr/lib/gcc/x86_64-linux-gnu/9/include/limits.h" 2 3 4
# 48 "fraction_to_recurring_decimal.c" 2
# 1 "/usr/lib/gcc/x86_64-linux-gnu/9/include/stdint.h" 1 3 4
# 9 "/usr/lib/gcc/x86_64-linux-gnu/9/include/stdint.h" 3 4
# 1 "/usr/include/stdint.h" 1 3 4
# 26 "/usr/include/stdint.h" 3 4
# 1 "/usr/include/x86_64-linux-gnu/bits/libc-header-start.h" 1 3 4
# 27 "/usr/include/stdint.h" 2 3 4

# 1 "/usr/include/x86_64-linux-gnu/bits/wchar.h" 1 3 4
# 29 "/usr/include/stdint.h" 2 3 4
# 1 "/usr/include/x86_64-linux-gnu/bits/wordsize.h" 1 3 4
# 30 "/usr/include/stdint.h" 2 3 4







# 1 "/usr/include/x86_64-linux-gnu/bits/stdint-uintn.h" 1 3 4
# 24 "/usr/include/x86_64-linux-gnu/bits/stdint-uintn.h" 3 4
typedef __uint8_t uint8_t;
typedef __uint16_t uint16_t;
typedef __uint32_t uint32_t;
typedef __uint64_t uint64_t;
# 38 "/usr/include/stdint.h" 2 3 4





typedef __int_least8_t int_least8_t;
typedef __int_least16_t int_least16_t;
typedef __int_least32_t int_least32_t;
typedef __int_least64_t int_least64_t;


typedef __uint_least8_t uint_least8_t;
typedef __uint_least16_t uint_least16_t;
typedef __uint_least32_t uint_least32_t;
typedef __uint_least64_t uint_least64_t;





typedef signed char int_fast8_t;

typedef long int int_fast16_t;
typedef long int int_fast32_t;
typedef long int int_fast64_t;
# 71 "/usr/include/stdint.h" 3 4
typedef unsigned char uint_fast8_t;

typedef unsigned long int uint_fast16_t;
typedef unsigned long int uint_fast32_t;
typedef unsigned long int uint_fast64_t;
# 87 "/usr/include/stdint.h" 3 4
typedef long int intptr_t;


typedef unsigned long int uintptr_t;
# 101 "/usr/include/stdint.h" 3 4
typedef __intmax_t intmax_t;
typedef __uintmax_t uintmax_t;
# 10 "/usr/lib/gcc/x86_64-linux-gnu/9/include/stdint.h" 2 3 4
# 49 "fraction_to_recurring_decimal.c" 2
# 1 "/usr/include/uthash.h" 1 3 4
# 30 "/usr/include/uthash.h" 3 4
# 1 "/usr/lib/gcc/x86_64-linux-gnu/9/include/stddef.h" 1 3 4
# 143 "/usr/lib/gcc/x86_64-linux-gnu/9/include/stddef.h" 3 4
typedef long int ptrdiff_t;
# 415 "/usr/lib/gcc/x86_64-linux-gnu/9/include/stddef.h" 3 4
typedef struct {
  long long __max_align_ll __attribute__((__aligned__(__alignof__(long long))));
  long double __max_align_ld __attribute__((__aligned__(__alignof__(long double))));
# 426 "/usr/lib/gcc/x86_64-linux-gnu/9/include/stddef.h" 3 4
} max_align_t;
# 31 "/usr/include/uthash.h" 2 3 4
# 1159 "/usr/include/uthash.h" 3 4
typedef struct UT_hash_bucket {
   struct UT_hash_handle *hh_head;
   unsigned count;
# 1175 "/usr/include/uthash.h" 3 4
   unsigned expand_mult;

} UT_hash_bucket;





typedef struct UT_hash_table {
   UT_hash_bucket *buckets;
   unsigned num_buckets, log2_num_buckets;
   unsigned num_items;
   struct UT_hash_handle *tail;
   ptrdiff_t hho;



   unsigned ideal_chain_maxlen;




   unsigned nonideal_items;







   unsigned ineff_expands, noexpand;

   uint32_t signature;






} UT_hash_table;

typedef struct UT_hash_handle {
   struct UT_hash_table *tbl;
   void *prev;
   void *next;
   struct UT_hash_handle *hh_prev;
   struct UT_hash_handle *hh_next;
   void *key;
   unsigned keylen;
   unsigned hashv;
} UT_hash_handle;
# 50 "fraction_to_recurring_decimal.c" 2






# 55 "fraction_to_recurring_decimal.c"
struct inthash{
    int val;
    UT_hash_handle hh;
};

void hash_add(struct inthash **ihash, int num){
    struct inthash *el = malloc(sizeof(struct inthash));
    el->val = num;
    
# 63 "fraction_to_recurring_decimal.c" 3 4
   do { unsigned _ha_hashv; do { do { unsigned _hj_i,_hj_j,_hj_k; unsigned const char *_hj_key=(unsigned const char*)(&((
# 63 "fraction_to_recurring_decimal.c"
   el
# 63 "fraction_to_recurring_decimal.c" 3 4
   )->
# 63 "fraction_to_recurring_decimal.c"
   val
# 63 "fraction_to_recurring_decimal.c" 3 4
   )); _ha_hashv = 0xfeedbeefu; _hj_i = _hj_j = 0x9e3779b9u; _hj_k = (unsigned)(sizeof(int)); while (_hj_k >= 12U) { _hj_i += (_hj_key[0] + ( (unsigned)_hj_key[1] << 8 ) + ( (unsigned)_hj_key[2] << 16 ) + ( (unsigned)_hj_key[3] << 24 ) ); _hj_j += (_hj_key[4] + ( (unsigned)_hj_key[5] << 8 ) + ( (unsigned)_hj_key[6] << 16 ) + ( (unsigned)_hj_key[7] << 24 ) ); _ha_hashv += (_hj_key[8] + ( (unsigned)_hj_key[9] << 8 ) + ( (unsigned)_hj_key[10] << 16 ) + ( (unsigned)_hj_key[11] << 24 ) ); do { _hj_i -= _hj_j; _hj_i -= _ha_hashv; _hj_i ^= ( _ha_hashv >> 13 ); _hj_j -= _ha_hashv; _hj_j -= _hj_i; _hj_j ^= ( _hj_i << 8 ); _ha_hashv -= _hj_i; _ha_hashv -= _hj_j; _ha_hashv ^= ( _hj_j >> 13 ); _hj_i -= _hj_j; _hj_i -= _ha_hashv; _hj_i ^= ( _ha_hashv >> 12 ); _hj_j -= _ha_hashv; _hj_j -= _hj_i; _hj_j ^= ( _hj_i << 16 ); _ha_hashv -= _hj_i; _ha_hashv -= _hj_j; _ha_hashv ^= ( _hj_j >> 5 ); _hj_i -= _hj_j; _hj_i -= _ha_hashv; _hj_i ^= ( _ha_hashv >> 3 ); _hj_j -= _ha_hashv; _hj_j -= _hj_i; _hj_j ^= ( _hj_i << 10 ); _ha_hashv -= _hj_i; _ha_hashv -= _hj_j; _ha_hashv ^= ( _hj_j >> 15 ); } while (0); _hj_key += 12; _hj_k -= 12U; } _ha_hashv += (unsigned)(sizeof(int)); switch ( _hj_k ) { case 11: _ha_hashv += ( (unsigned)_hj_key[10] << 24 ); case 10: _ha_hashv += ( (unsigned)_hj_key[9] << 16 ); case 9: _ha_hashv += ( (unsigned)_hj_key[8] << 8 ); case 8: _hj_j += ( (unsigned)_hj_key[7] << 24 ); case 7: _hj_j += ( (unsigned)_hj_key[6] << 16 ); case 6: _hj_j += ( (unsigned)_hj_key[5] << 8 ); case 5: _hj_j += _hj_key[4]; case 4: _hj_i += ( (unsigned)_hj_key[3] << 24 ); case 3: _hj_i += ( (unsigned)_hj_key[2] << 16 ); case 2: _hj_i += ( (unsigned)_hj_key[1] << 8 ); case 1: _hj_i += _hj_key[0]; } do { _hj_i -= _hj_j; _hj_i -= _ha_hashv; _hj_i ^= ( _ha_hashv >> 13 ); _hj_j -= _ha_hashv; _hj_j -= _hj_i; _hj_j ^= ( _hj_i << 8 ); _ha_hashv -= _hj_i; _ha_hashv -= _hj_j; _ha_hashv ^= ( _hj_j >> 13 ); _hj_i -= _hj_j; _hj_i -= _ha_hashv; _hj_i ^= ( _ha_hashv >> 12 ); _hj_j -= _ha_hashv; _hj_j -= _hj_i; _hj_j ^= ( _hj_i << 16 ); _ha_hashv -= _hj_i; _ha_hashv -= _hj_j; _ha_hashv ^= ( _hj_j >> 5 ); _hj_i -= _hj_j; _hj_i -= _ha_hashv; _hj_i ^= ( _ha_hashv >> 3 ); _hj_j -= _ha_hashv; _hj_j -= _hj_i; _hj_j ^= ( _hj_i << 10 ); _ha_hashv -= _hj_i; _ha_hashv -= _hj_j; _ha_hashv ^= ( _hj_j >> 15 ); } while (0); } while (0); } while (0); do { (
# 63 "fraction_to_recurring_decimal.c"
   el
# 63 "fraction_to_recurring_decimal.c" 3 4
   )->hh.hashv = (_ha_hashv); (
# 63 "fraction_to_recurring_decimal.c"
   el
# 63 "fraction_to_recurring_decimal.c" 3 4
   )->hh.key = (char*) (&((
# 63 "fraction_to_recurring_decimal.c"
   el
# 63 "fraction_to_recurring_decimal.c" 3 4
   )->
# 63 "fraction_to_recurring_decimal.c"
   val
# 63 "fraction_to_recurring_decimal.c" 3 4
   )); (
# 63 "fraction_to_recurring_decimal.c"
   el
# 63 "fraction_to_recurring_decimal.c" 3 4
   )->hh.keylen = (unsigned) (sizeof(int)); if (!(
# 63 "fraction_to_recurring_decimal.c"
   *ihash
# 63 "fraction_to_recurring_decimal.c" 3 4
   )) { (
# 63 "fraction_to_recurring_decimal.c"
   el
# 63 "fraction_to_recurring_decimal.c" 3 4
   )->hh.next = ((void *)0); (
# 63 "fraction_to_recurring_decimal.c"
   el
# 63 "fraction_to_recurring_decimal.c" 3 4
   )->hh.prev = ((void *)0); do { (
# 63 "fraction_to_recurring_decimal.c"
   el
# 63 "fraction_to_recurring_decimal.c" 3 4
   )->hh.tbl = (UT_hash_table*)malloc(sizeof(UT_hash_table)); if (!(
# 63 "fraction_to_recurring_decimal.c"
   el
# 63 "fraction_to_recurring_decimal.c" 3 4
   )->hh.tbl) { exit(-1); } else { memset((
# 63 "fraction_to_recurring_decimal.c"
   el
# 63 "fraction_to_recurring_decimal.c" 3 4
   )->hh.tbl,'\0',sizeof(UT_hash_table)); (
# 63 "fraction_to_recurring_decimal.c"
   el
# 63 "fraction_to_recurring_decimal.c" 3 4
   )->hh.tbl->tail = &((
# 63 "fraction_to_recurring_decimal.c"
   el
# 63 "fraction_to_recurring_decimal.c" 3 4
   )->hh); (
# 63 "fraction_to_recurring_decimal.c"
   el
# 63 "fraction_to_recurring_decimal.c" 3 4
   )->hh.tbl->num_buckets = 32U; (
# 63 "fraction_to_recurring_decimal.c"
   el
# 63 "fraction_to_recurring_decimal.c" 3 4
   )->hh.tbl->log2_num_buckets = 5U; (
# 63 "fraction_to_recurring_decimal.c"
   el
# 63 "fraction_to_recurring_decimal.c" 3 4
   )->hh.tbl->hho = (char*)(&(
# 63 "fraction_to_recurring_decimal.c"
   el
# 63 "fraction_to_recurring_decimal.c" 3 4
   )->hh) - (char*)(
# 63 "fraction_to_recurring_decimal.c"
   el
# 63 "fraction_to_recurring_decimal.c" 3 4
   ); (
# 63 "fraction_to_recurring_decimal.c"
   el
# 63 "fraction_to_recurring_decimal.c" 3 4
   )->hh.tbl->buckets = (UT_hash_bucket*)malloc(32U * sizeof(struct UT_hash_bucket)); (
# 63 "fraction_to_recurring_decimal.c"
   el
# 63 "fraction_to_recurring_decimal.c" 3 4
   )->hh.tbl->signature = 0xa0111fe1u; if (!(
# 63 "fraction_to_recurring_decimal.c"
   el
# 63 "fraction_to_recurring_decimal.c" 3 4
   )->hh.tbl->buckets) { exit(-1); free((
# 63 "fraction_to_recurring_decimal.c"
   el
# 63 "fraction_to_recurring_decimal.c" 3 4
   )->hh.tbl); } else { memset((
# 63 "fraction_to_recurring_decimal.c"
   el
# 63 "fraction_to_recurring_decimal.c" 3 4
   )->hh.tbl->buckets,'\0',32U * sizeof(struct UT_hash_bucket)); ; } } } while (0); (
# 63 "fraction_to_recurring_decimal.c"
   *ihash
# 63 "fraction_to_recurring_decimal.c" 3 4
   ) = (
# 63 "fraction_to_recurring_decimal.c"
   el
# 63 "fraction_to_recurring_decimal.c" 3 4
   ); } else { (
# 63 "fraction_to_recurring_decimal.c"
   el
# 63 "fraction_to_recurring_decimal.c" 3 4
   )->hh.tbl = (
# 63 "fraction_to_recurring_decimal.c"
   *ihash
# 63 "fraction_to_recurring_decimal.c" 3 4
   )->hh.tbl; do { (
# 63 "fraction_to_recurring_decimal.c"
   el
# 63 "fraction_to_recurring_decimal.c" 3 4
   )->hh.next = ((void *)0); (
# 63 "fraction_to_recurring_decimal.c"
   el
# 63 "fraction_to_recurring_decimal.c" 3 4
   )->hh.prev = ((void*)(((char*)((
# 63 "fraction_to_recurring_decimal.c"
   *ihash
# 63 "fraction_to_recurring_decimal.c" 3 4
   )->hh.tbl->tail)) - (((
# 63 "fraction_to_recurring_decimal.c"
   *ihash
# 63 "fraction_to_recurring_decimal.c" 3 4
   )->hh.tbl)->hho))); (
# 63 "fraction_to_recurring_decimal.c"
   *ihash
# 63 "fraction_to_recurring_decimal.c" 3 4
   )->hh.tbl->tail->next = (
# 63 "fraction_to_recurring_decimal.c"
   el
# 63 "fraction_to_recurring_decimal.c" 3 4
   ); (
# 63 "fraction_to_recurring_decimal.c"
   *ihash
# 63 "fraction_to_recurring_decimal.c" 3 4
   )->hh.tbl->tail = &((
# 63 "fraction_to_recurring_decimal.c"
   el
# 63 "fraction_to_recurring_decimal.c" 3 4
   )->hh); } while (0); } do { unsigned _ha_bkt; (
# 63 "fraction_to_recurring_decimal.c"
   *ihash
# 63 "fraction_to_recurring_decimal.c" 3 4
   )->hh.tbl->num_items++; do { _ha_bkt = ((_ha_hashv) & (((
# 63 "fraction_to_recurring_decimal.c"
   *ihash
# 63 "fraction_to_recurring_decimal.c" 3 4
   )->hh.tbl->num_buckets) - 1U)); } while (0); do { UT_hash_bucket *_ha_head = &((
# 63 "fraction_to_recurring_decimal.c"
   *ihash
# 63 "fraction_to_recurring_decimal.c" 3 4
   )->hh.tbl->buckets[_ha_bkt]); _ha_head->count++; (&(
# 63 "fraction_to_recurring_decimal.c"
   el
# 63 "fraction_to_recurring_decimal.c" 3 4
   )->hh)->hh_next = _ha_head->hh_head; (&(
# 63 "fraction_to_recurring_decimal.c"
   el
# 63 "fraction_to_recurring_decimal.c" 3 4
   )->hh)->hh_prev = ((void *)0); if (_ha_head->hh_head != ((void *)0)) { _ha_head->hh_head->hh_prev = (&(
# 63 "fraction_to_recurring_decimal.c"
   el
# 63 "fraction_to_recurring_decimal.c" 3 4
   )->hh); } _ha_head->hh_head = (&(
# 63 "fraction_to_recurring_decimal.c"
   el
# 63 "fraction_to_recurring_decimal.c" 3 4
   )->hh); if ((_ha_head->count >= ((_ha_head->expand_mult + 1U) * 10U)) && !(&(
# 63 "fraction_to_recurring_decimal.c"
   el
# 63 "fraction_to_recurring_decimal.c" 3 4
   )->hh)->tbl->noexpand) { do { unsigned _he_bkt; unsigned _he_bkt_i; struct UT_hash_handle *_he_thh, *_he_hh_nxt; UT_hash_bucket *_he_new_buckets, *_he_newbkt; _he_new_buckets = (UT_hash_bucket*)malloc(2UL * ((&(
# 63 "fraction_to_recurring_decimal.c"
   el
# 63 "fraction_to_recurring_decimal.c" 3 4
   )->hh)->tbl)->num_buckets * sizeof(struct UT_hash_bucket)); if (!_he_new_buckets) { exit(-1); } else { memset(_he_new_buckets,'\0',2UL * ((&(
# 63 "fraction_to_recurring_decimal.c"
   el
# 63 "fraction_to_recurring_decimal.c" 3 4
   )->hh)->tbl)->num_buckets * sizeof(struct UT_hash_bucket)); ((&(
# 63 "fraction_to_recurring_decimal.c"
   el
# 63 "fraction_to_recurring_decimal.c" 3 4
   )->hh)->tbl)->ideal_chain_maxlen = (((&(
# 63 "fraction_to_recurring_decimal.c"
   el
# 63 "fraction_to_recurring_decimal.c" 3 4
   )->hh)->tbl)->num_items >> (((&(
# 63 "fraction_to_recurring_decimal.c"
   el
# 63 "fraction_to_recurring_decimal.c" 3 4
   )->hh)->tbl)->log2_num_buckets+1U)) + (((((&(
# 63 "fraction_to_recurring_decimal.c"
   el
# 63 "fraction_to_recurring_decimal.c" 3 4
   )->hh)->tbl)->num_items & ((((&(
# 63 "fraction_to_recurring_decimal.c"
   el
# 63 "fraction_to_recurring_decimal.c" 3 4
   )->hh)->tbl)->num_buckets*2U)-1U)) != 0U) ? 1U : 0U); ((&(
# 63 "fraction_to_recurring_decimal.c"
   el
# 63 "fraction_to_recurring_decimal.c" 3 4
   )->hh)->tbl)->nonideal_items = 0; for (_he_bkt_i = 0; _he_bkt_i < ((&(
# 63 "fraction_to_recurring_decimal.c"
   el
# 63 "fraction_to_recurring_decimal.c" 3 4
   )->hh)->tbl)->num_buckets; _he_bkt_i++) { _he_thh = ((&(
# 63 "fraction_to_recurring_decimal.c"
   el
# 63 "fraction_to_recurring_decimal.c" 3 4
   )->hh)->tbl)->buckets[ _he_bkt_i ].hh_head; while (_he_thh != ((void *)0)) { _he_hh_nxt = _he_thh->hh_next; do { _he_bkt = ((_he_thh->hashv) & ((((&(
# 63 "fraction_to_recurring_decimal.c"
   el
# 63 "fraction_to_recurring_decimal.c" 3 4
   )->hh)->tbl)->num_buckets * 2U) - 1U)); } while (0); _he_newbkt = &(_he_new_buckets[_he_bkt]); if (++(_he_newbkt->count) > ((&(
# 63 "fraction_to_recurring_decimal.c"
   el
# 63 "fraction_to_recurring_decimal.c" 3 4
   )->hh)->tbl)->ideal_chain_maxlen) { ((&(
# 63 "fraction_to_recurring_decimal.c"
   el
# 63 "fraction_to_recurring_decimal.c" 3 4
   )->hh)->tbl)->nonideal_items++; if (_he_newbkt->count > _he_newbkt->expand_mult * ((&(
# 63 "fraction_to_recurring_decimal.c"
   el
# 63 "fraction_to_recurring_decimal.c" 3 4
   )->hh)->tbl)->ideal_chain_maxlen) { _he_newbkt->expand_mult++; } } _he_thh->hh_prev = ((void *)0); _he_thh->hh_next = _he_newbkt->hh_head; if (_he_newbkt->hh_head != ((void *)0)) { _he_newbkt->hh_head->hh_prev = _he_thh; } _he_newbkt->hh_head = _he_thh; _he_thh = _he_hh_nxt; } } free(((&(
# 63 "fraction_to_recurring_decimal.c"
   el
# 63 "fraction_to_recurring_decimal.c" 3 4
   )->hh)->tbl)->buckets); ((&(
# 63 "fraction_to_recurring_decimal.c"
   el
# 63 "fraction_to_recurring_decimal.c" 3 4
   )->hh)->tbl)->num_buckets *= 2U; ((&(
# 63 "fraction_to_recurring_decimal.c"
   el
# 63 "fraction_to_recurring_decimal.c" 3 4
   )->hh)->tbl)->log2_num_buckets++; ((&(
# 63 "fraction_to_recurring_decimal.c"
   el
# 63 "fraction_to_recurring_decimal.c" 3 4
   )->hh)->tbl)->buckets = _he_new_buckets; ((&(
# 63 "fraction_to_recurring_decimal.c"
   el
# 63 "fraction_to_recurring_decimal.c" 3 4
   )->hh)->tbl)->ineff_expands = (((&(
# 63 "fraction_to_recurring_decimal.c"
   el
# 63 "fraction_to_recurring_decimal.c" 3 4
   )->hh)->tbl)->nonideal_items > (((&(
# 63 "fraction_to_recurring_decimal.c"
   el
# 63 "fraction_to_recurring_decimal.c" 3 4
   )->hh)->tbl)->num_items >> 1)) ? (((&(
# 63 "fraction_to_recurring_decimal.c"
   el
# 63 "fraction_to_recurring_decimal.c" 3 4
   )->hh)->tbl)->ineff_expands+1U) : 0U; if (((&(
# 63 "fraction_to_recurring_decimal.c"
   el
# 63 "fraction_to_recurring_decimal.c" 3 4
   )->hh)->tbl)->ineff_expands > 1U) { ((&(
# 63 "fraction_to_recurring_decimal.c"
   el
# 63 "fraction_to_recurring_decimal.c" 3 4
   )->hh)->tbl)->noexpand = 1; ; } ; } } while (0); } } while (0); ; ; } while (0); ; } while (0); } while (0)
# 63 "fraction_to_recurring_decimal.c"
                                ;
}

# 65 "fraction_to_recurring_decimal.c" 3 4
_Bool 
# 65 "fraction_to_recurring_decimal.c"
    hash_find(struct inthash **ihash, int num){
    struct inthash *el = 
# 66 "fraction_to_recurring_decimal.c" 3 4
                        ((void *)0)
# 66 "fraction_to_recurring_decimal.c"
                            ;
    
# 67 "fraction_to_recurring_decimal.c" 3 4
   do { unsigned _hf_hashv; do { do { unsigned _hj_i,_hj_j,_hj_k; unsigned const char *_hj_key=(unsigned const char*)(
# 67 "fraction_to_recurring_decimal.c"
   &num
# 67 "fraction_to_recurring_decimal.c" 3 4
   ); _hf_hashv = 0xfeedbeefu; _hj_i = _hj_j = 0x9e3779b9u; _hj_k = (unsigned)(sizeof(int)); while (_hj_k >= 12U) { _hj_i += (_hj_key[0] + ( (unsigned)_hj_key[1] << 8 ) + ( (unsigned)_hj_key[2] << 16 ) + ( (unsigned)_hj_key[3] << 24 ) ); _hj_j += (_hj_key[4] + ( (unsigned)_hj_key[5] << 8 ) + ( (unsigned)_hj_key[6] << 16 ) + ( (unsigned)_hj_key[7] << 24 ) ); _hf_hashv += (_hj_key[8] + ( (unsigned)_hj_key[9] << 8 ) + ( (unsigned)_hj_key[10] << 16 ) + ( (unsigned)_hj_key[11] << 24 ) ); do { _hj_i -= _hj_j; _hj_i -= _hf_hashv; _hj_i ^= ( _hf_hashv >> 13 ); _hj_j -= _hf_hashv; _hj_j -= _hj_i; _hj_j ^= ( _hj_i << 8 ); _hf_hashv -= _hj_i; _hf_hashv -= _hj_j; _hf_hashv ^= ( _hj_j >> 13 ); _hj_i -= _hj_j; _hj_i -= _hf_hashv; _hj_i ^= ( _hf_hashv >> 12 ); _hj_j -= _hf_hashv; _hj_j -= _hj_i; _hj_j ^= ( _hj_i << 16 ); _hf_hashv -= _hj_i; _hf_hashv -= _hj_j; _hf_hashv ^= ( _hj_j >> 5 ); _hj_i -= _hj_j; _hj_i -= _hf_hashv; _hj_i ^= ( _hf_hashv >> 3 ); _hj_j -= _hf_hashv; _hj_j -= _hj_i; _hj_j ^= ( _hj_i << 10 ); _hf_hashv -= _hj_i; _hf_hashv -= _hj_j; _hf_hashv ^= ( _hj_j >> 15 ); } while (0); _hj_key += 12; _hj_k -= 12U; } _hf_hashv += (unsigned)(sizeof(int)); switch ( _hj_k ) { case 11: _hf_hashv += ( (unsigned)_hj_key[10] << 24 ); case 10: _hf_hashv += ( (unsigned)_hj_key[9] << 16 ); case 9: _hf_hashv += ( (unsigned)_hj_key[8] << 8 ); case 8: _hj_j += ( (unsigned)_hj_key[7] << 24 ); case 7: _hj_j += ( (unsigned)_hj_key[6] << 16 ); case 6: _hj_j += ( (unsigned)_hj_key[5] << 8 ); case 5: _hj_j += _hj_key[4]; case 4: _hj_i += ( (unsigned)_hj_key[3] << 24 ); case 3: _hj_i += ( (unsigned)_hj_key[2] << 16 ); case 2: _hj_i += ( (unsigned)_hj_key[1] << 8 ); case 1: _hj_i += _hj_key[0]; } do { _hj_i -= _hj_j; _hj_i -= _hf_hashv; _hj_i ^= ( _hf_hashv >> 13 ); _hj_j -= _hf_hashv; _hj_j -= _hj_i; _hj_j ^= ( _hj_i << 8 ); _hf_hashv -= _hj_i; _hf_hashv -= _hj_j; _hf_hashv ^= ( _hj_j >> 13 ); _hj_i -= _hj_j; _hj_i -= _hf_hashv; _hj_i ^= ( _hf_hashv >> 12 ); _hj_j -= _hf_hashv; _hj_j -= _hj_i; _hj_j ^= ( _hj_i << 16 ); _hf_hashv -= _hj_i; _hf_hashv -= _hj_j; _hf_hashv ^= ( _hj_j >> 5 ); _hj_i -= _hj_j; _hj_i -= _hf_hashv; _hj_i ^= ( _hf_hashv >> 3 ); _hj_j -= _hf_hashv; _hj_j -= _hj_i; _hj_j ^= ( _hj_i << 10 ); _hf_hashv -= _hj_i; _hf_hashv -= _hj_j; _hf_hashv ^= ( _hj_j >> 15 ); } while (0); } while (0); } while (0); do { (
# 67 "fraction_to_recurring_decimal.c"
   el
# 67 "fraction_to_recurring_decimal.c" 3 4
   ) = ((void *)0); if (
# 67 "fraction_to_recurring_decimal.c"
   *ihash
# 67 "fraction_to_recurring_decimal.c" 3 4
   ) { unsigned _hf_bkt; do { _hf_bkt = ((_hf_hashv) & (((
# 67 "fraction_to_recurring_decimal.c"
   *ihash
# 67 "fraction_to_recurring_decimal.c" 3 4
   )->hh.tbl->num_buckets) - 1U)); } while (0); if ((1) != 0) { do { if (((
# 67 "fraction_to_recurring_decimal.c"
   *ihash
# 67 "fraction_to_recurring_decimal.c" 3 4
   )->hh.tbl->buckets[ _hf_bkt ]).hh_head != ((void *)0)) { do { (
# 67 "fraction_to_recurring_decimal.c"
   el
# 67 "fraction_to_recurring_decimal.c" 3 4
   ) = (__typeof(
# 67 "fraction_to_recurring_decimal.c"
   el
# 67 "fraction_to_recurring_decimal.c" 3 4
   ))(((void*)(((char*)(((
# 67 "fraction_to_recurring_decimal.c"
   *ihash
# 67 "fraction_to_recurring_decimal.c" 3 4
   )->hh.tbl->buckets[ _hf_bkt ]).hh_head)) - (((
# 67 "fraction_to_recurring_decimal.c"
   *ihash
# 67 "fraction_to_recurring_decimal.c" 3 4
   )->hh.tbl)->hho)))); } while (0); } else { (
# 67 "fraction_to_recurring_decimal.c"
   el
# 67 "fraction_to_recurring_decimal.c" 3 4
   ) = ((void *)0); } while ((
# 67 "fraction_to_recurring_decimal.c"
   el
# 67 "fraction_to_recurring_decimal.c" 3 4
   ) != ((void *)0)) { if ((
# 67 "fraction_to_recurring_decimal.c"
   el
# 67 "fraction_to_recurring_decimal.c" 3 4
   )->hh.hashv == (_hf_hashv) && (
# 67 "fraction_to_recurring_decimal.c"
   el
# 67 "fraction_to_recurring_decimal.c" 3 4
   )->hh.keylen == (sizeof(int))) { if (memcmp((
# 67 "fraction_to_recurring_decimal.c"
   el
# 67 "fraction_to_recurring_decimal.c" 3 4
   )->hh.key,
# 67 "fraction_to_recurring_decimal.c"
   &num
# 67 "fraction_to_recurring_decimal.c" 3 4
   ,sizeof(int)) == 0) { break; } } if ((
# 67 "fraction_to_recurring_decimal.c"
   el
# 67 "fraction_to_recurring_decimal.c" 3 4
   )->hh.hh_next != ((void *)0)) { do { (
# 67 "fraction_to_recurring_decimal.c"
   el
# 67 "fraction_to_recurring_decimal.c" 3 4
   ) = (__typeof(
# 67 "fraction_to_recurring_decimal.c"
   el
# 67 "fraction_to_recurring_decimal.c" 3 4
   ))(((void*)(((char*)((
# 67 "fraction_to_recurring_decimal.c"
   el
# 67 "fraction_to_recurring_decimal.c" 3 4
   )->hh.hh_next)) - (((
# 67 "fraction_to_recurring_decimal.c"
   *ihash
# 67 "fraction_to_recurring_decimal.c" 3 4
   )->hh.tbl)->hho)))); } while (0); } else { (
# 67 "fraction_to_recurring_decimal.c"
   el
# 67 "fraction_to_recurring_decimal.c" 3 4
   ) = ((void *)0); } } } while (0); } } } while (0); } while (0)
# 67 "fraction_to_recurring_decimal.c"
                                  ;
    return el != 
# 68 "fraction_to_recurring_decimal.c" 3 4
                ((void *)0)
# 68 "fraction_to_recurring_decimal.c"
                    ;
}

char * fractionToDecimal(int numerator, int denominator){
   char *res = calloc(sizeof(char), 10000);
   int res_idx = 0;


   
# 76 "fraction_to_recurring_decimal.c" 3 4
  _Bool 
# 76 "fraction_to_recurring_decimal.c"
       is_neg = (numerator < 0) ^ (denominator < 0);


   int res_num = numerator / denominator;


   if(numerator % denominator == 0) {
      if(is_neg) {
         res_idx = snprintf(res, 10000, "-");
         res_idx = snprintf(res + res_idx, 10000, "%d", res_num);
         return res;
      }
   }

   struct inthash *ihash = 
# 90 "fraction_to_recurring_decimal.c" 3 4
                          ((void *)0)
# 90 "fraction_to_recurring_decimal.c"
                              ;

   int remainder = numerator % denominator;
   
# 93 "fraction_to_recurring_decimal.c" 3 4
  _Bool 
# 93 "fraction_to_recurring_decimal.c"
       is_recurring = 
# 93 "fraction_to_recurring_decimal.c" 3 4
                      0
# 93 "fraction_to_recurring_decimal.c"
                           ;
   char *res_fract = calloc(sizeof(char), 10000);
   int res_fract_idx = 0;

   while(remainder != 0 && !is_recurring) {
      if(hash_find(&ihash, remainder) == 
# 98 "fraction_to_recurring_decimal.c" 3 4
                                        0
# 98 "fraction_to_recurring_decimal.c"
                                             ) {
         hash_add(&ihash, remainder);
      }else {
         is_recurring = 
# 101 "fraction_to_recurring_decimal.c" 3 4
                       1
# 101 "fraction_to_recurring_decimal.c"
                           ;
         break;
      }
      int num = remainder * 10;
      int r = num / denominator;
      res_fract[res_fract_idx++] = r + '0';
      remainder = num % denominator;
   }


   if(is_neg == 
# 111 "fraction_to_recurring_decimal.c" 3 4
               1
# 111 "fraction_to_recurring_decimal.c"
                   )
      res_idx = snprintf(res, 10000, "-");
   res_idx = snprintf(res + res_idx, 10000, "%d.",res_num);

   if(is_recurring == 
# 115 "fraction_to_recurring_decimal.c" 3 4
                     1
# 115 "fraction_to_recurring_decimal.c"
                         )
      res_idx = snprintf(res + res_idx, 10000, "(%s)", res_fract);
   else
      res_idx = snprintf(res + res_idx, 10000, "%s", res_fract);

   free(res_fract);
   return res;
}

int main() {
}
